frame000.jpg,97,1,509,89,339
frame000.jpg,47,144,654,109,158
frame000.jpg,98,224,486,181,394
frame000.jpg,99,444,574,126,242
frame000.jpg,83,568,586,83,209
frame000.jpg,96,642,582,87,212
frame000.jpg,86,729,600,70,186
frame000.jpg,36,776,590,49,163
frame000.jpg,94,869,610,90,201
frame000.jpg,54,921,606,46,186
frame000.jpg,92,954,605,71,179
frame000.jpg,70,1033,639,51,124
frame000.jpg,90,1058,546,288,359
frame000.jpg,61,1207,595,61,71
frame000.jpg,87,1484,581,76,196
frame000.jpg,39,1501,571,61,128
frame000.jpg,99,1589,549,112,248
frame000.jpg,51,1852,626,68,184
frame001.jpg,85,0,485,46,324
frame001.jpg,99,177,479,189,401
frame001.jpg,98,420,572,120,246
frame001.jpg,91,532,589,84,213
frame001.jpg,92,611,585,81,213
frame001.jpg,47,673,589,73,206
frame001.jpg,79,718,598,72,193
frame001.jpg,62,818,599,82,205
frame001.jpg,91,856,616,83,189
frame001.jpg,63,924,599,42,200
frame001.jpg,87,940,615,54,164
frame001.jpg,71,999,638,55,127
frame001.jpg,100,1012,464,501,452
frame001.jpg,58,1292,658,56,61
frame001.jpg,69,1347,660,57,57
frame001.jpg,70,1462,602,83,170
frame001.jpg,46,1466,564,58,144
frame001.jpg,92,1556,537,94,238
frame001.jpg,54,1832,609,87,88
frame001.jpg,52,1835,662,84,121
frame002.jpg,28,41,671,121,179
frame002.jpg,99,137,485,191,418
frame002.jpg,89,399,578,110,246
frame002.jpg,92,492,594,86,210
frame002.jpg,97,576,589,91,216
frame002.jpg,84,672,603,71,192
frame002.jpg,49,806,610,46,181
frame002.jpg,96,819,617,75,198
frame002.jpg,42,882,616,70,189
frame002.jpg,87,915,612,50,181
frame002.jpg,73,976,657,57,112
frame002.jpg,100,1023,462,370,536
frame002.jpg,31,1280,662,39,58
frame002.jpg,67,1320,661,48,59
frame002.jpg,78,1425,593,73,174
frame002.jpg,97,1515,549,103,241
frame002.jpg,91,1776,659,129,125
frame002.jpg,81,1783,610,93,81
frame003.jpg,35,5,676,96,191
frame003.jpg,98,68,478,215,470
frame003.jpg,98,338,582,127,270
frame003.jpg,89,459,604,86,222
frame003.jpg,82,539,589,83,225
frame003.jpg,89,654,612,70,196
frame003.jpg,31,696,610,49,173
frame003.jpg,32,742,608,69,185
frame003.jpg,61,777,625,47,176
frame003.jpg,96,803,620,77,204
frame003.jpg,74,873,615,73,190
frame003.jpg,61,947,659,53,115
frame003.jpg,99,994,486,458,503
frame003.jpg,60,1231,659,66,64
frame003.jpg,62,1285,664,49,57
frame003.jpg,75,1394,598,73,171
frame003.jpg,96,1479,557,91,223
frame003.jpg,94,1726,660,132,115
frame003.jpg,79,1735,608,88,85
frame003.jpg,94,1843,521,75,256
frame004.jpg,99,10,488,221,480
frame004.jpg,99,284,588,135,279
frame004.jpg,93,409,614,100,220
frame004.jpg,98,492,604,100,219
frame004.jpg,88,602,621,76,188
frame004.jpg,29,657,613,50,162
frame004.jpg,94,742,623,75,194
frame004.jpg,86,807,624,76,185
frame004.jpg,75,843,606,56,187
frame004.jpg,83,909,660,57,120
frame004.jpg,100,977,556,502,418
frame004.jpg,34,1017,640,51,117
frame004.jpg,39,1352,640,47,115
frame004.jpg,35,1389,630,71,137
frame004.jpg,80,1431,562,116,216
frame004.jpg,89,1666,655,120,114
frame004.jpg,60,1674,606,83,86
frame004.jpg,99,1784,538,134,237
frame005.jpg,96,251,600,125,277
frame005.jpg,82,366,624,90,219
frame005.jpg,97,449,611,97,226
frame005.jpg,97,577,624,75,194
frame005.jpg,74,703,629,51,181
frame005.jpg,97,740,638,95,199
frame005.jpg,76,797,625,76,193
frame005.jpg,50,886,660,47,119
frame005.jpg,100,989,528,493,450
frame005.jpg,57,1315,584,52,95
frame005.jpg,40,1339,585,78,183
frame005.jpg,92,1389,563,88,217
frame005.jpg,68,1620,654,115,112
frame005.jpg,34,1632,605,73,87
frame005.jpg,99,1715,525,168,246
frame006.jpg,96,251,600,125,277
frame006.jpg,81,366,624,91,219
frame006.jpg,97,449,611,97,226
frame006.jpg,97,577,624,75,194
frame006.jpg,74,703,630,51,180
frame006.jpg,97,740,638,95,199
frame006.jpg,76,797,624,76,193
frame006.jpg,50,886,660,48,119
frame006.jpg,100,990,528,491,451
frame006.jpg,58,1315,584,52,95
frame006.jpg,41,1338,585,78,183
frame006.jpg,92,1388,563,89,217
frame006.jpg,68,1619,654,116,112
frame006.jpg,36,1631,605,74,87
frame006.jpg,99,1711,516,184,261
frame007.jpg,59,1,519,69,424
frame007.jpg,98,123,610,160,285
frame007.jpg,95,269,622,110,234
frame007.jpg,97,362,618,108,232
frame007.jpg,54,462,628,76,207
frame007.jpg,94,502,632,76,198
frame007.jpg,27,549,629,56,174
frame007.jpg,70,605,643,83,168
frame007.jpg,64,650,647,77,179
frame007.jpg,30,672,650,98,204
frame007.jpg,95,710,644,89,193
frame007.jpg,26,767,657,46,155
frame007.jpg,49,816,675,48,124
frame007.jpg,100,974,441,454,540
frame007.jpg,46,980,616,45,116
frame007.jpg,47,1238,639,61,116
frame007.jpg,96,1307,567,99,212
frame007.jpg,77,1530,663,96,99
frame007.jpg,52,1543,616,62,72
frame007.jpg,100,1626,538,154,231
frame008.jpg,95,81,605,164,295
frame008.jpg,91,227,623,109,233
frame008.jpg,98,331,616,108,236
frame008.jpg,89,450,638,76,199
frame008.jpg,69,504,635,70,194
frame008.jpg,95,592,642,72,177
frame008.jpg,96,650,653,130,199
frame008.jpg,25,735,642,47,157
frame008.jpg,50,769,682,58,118
frame008.jpg,33,797,680,48,117
frame008.jpg,34,894,629,45,99
frame008.jpg,100,946,473,429,510
frame008.jpg,68,954,618,41,103
frame008.jpg,42,1210,638,52,118
frame008.jpg,31,1247,663,76,105
frame008.jpg,74,1262,597,101,182
frame008.jpg,88,1488,647,105,128
frame008.jpg,29,1508,621,56,67
frame008.jpg,100,1579,535,148,238
frame009.jpg,98,32,606,162,295
frame009.jpg,97,186,621,121,236
frame009.jpg,98,281,614,115,243
frame009.jpg,37,390,619,79,219
frame009.jpg,96,430,624,77,209
frame009.jpg,46,476,622,60,187
frame009.jpg,94,565,643,75,174
frame009.jpg,32,623,640,47,160
frame009.jpg,97,625,662,130,184
frame009.jpg,27,704,645,52,146
frame009.jpg,29,730,672,63,125
frame009.jpg,37,760,677,47,120
frame009.jpg,100,863,565,601,384
frame009.jpg,30,927,614,49,70
frame009.jpg,30,1211,664,72,101
frame009.jpg,83,1460,631,95,138
frame009.jpg,34,1472,619,55,70
frame009.jpg,100,1538,539,134,228
frame010.jpg,98,32,606,162,295
frame010.jpg,97,186,621,121,236
frame010.jpg,98,281,614,114,243
frame010.jpg,37,390,619,79,219
frame010.jpg,96,430,624,77,209
frame010.jpg,46,476,622,60,188
frame010.jpg,94,565,643,75,174
frame010.jpg,32,623,640,47,160
frame010.jpg,97,625,661,130,185
frame010.jpg,26,704,645,52,146
frame010.jpg,30,730,672,63,125
frame010.jpg,37,760,677,47,120
frame010.jpg,100,863,565,601,384
frame010.jpg,30,927,614,49,70
frame010.jpg,30,1211,664,72,101
frame010.jpg,83,1460,631,95,138
frame010.jpg,34,1472,619,55,70
frame010.jpg,100,1538,539,134,228
frame011.jpg,98,5,584,90,304
frame011.jpg,97,108,607,115,267
frame011.jpg,99,205,607,124,250
frame011.jpg,32,316,615,81,226
frame011.jpg,95,350,622,84,211
frame011.jpg,69,416,625,83,192
frame011.jpg,98,500,633,81,190
frame011.jpg,40,569,635,50,165
frame011.jpg,98,580,642,115,198
frame011.jpg,39,656,638,74,186
frame011.jpg,55,704,675,48,124
frame011.jpg,100,875,567,517,404
frame011.jpg,53,880,615,51,162
frame011.jpg,82,1187,583,82,175
frame011.jpg,77,1392,663,83,104
frame011.jpg,28,1409,626,49,63
frame011.jpg,99,1467,550,112,214
frame011.jpg,43,1500,595,114,166
frame011.jpg,86,1826,642,96,106
frame012.jpg,97,47,605,134,256
frame012.jpg,99,175,600,122,247
frame012.jpg,96,300,611,90,221
frame012.jpg,90,369,614,80,210
frame012.jpg,61,485,617,55,202
frame012.jpg,87,502,635,68,184
frame012.jpg,94,539,620,52,197
frame012.jpg,99,575,637,106,201
frame012.jpg,59,659,630,48,182
frame012.jpg,38,686,672,44,121
frame012.jpg,79,825,606,73,181
frame012.jpg,52,860,607,75,178
frame012.jpg,100,934,514,284,442
frame012.jpg,94,1160,579,82,202
frame012.jpg,66,1360,649,96,125
frame012.jpg,99,1442,573,118,198
frame012.jpg,34,1795,645,120,110
frame013.jpg,97,15,586,138,275
frame013.jpg,99,131,582,128,260
frame013.jpg,94,285,604,93,214
frame013.jpg,85,356,600,76,203
frame013.jpg,95,456,617,81,189
frame013.jpg,88,512,628,60,168
frame013.jpg,99,563,632,95,194
frame013.jpg,40,632,620,50,187
frame013.jpg,53,661,654,50,129
frame013.jpg,27,700,659,62,121
frame013.jpg,95,819,604,75,180
frame013.jpg,99,871,510,296,413
frame013.jpg,37,941,669,80,99
frame013.jpg,93,1149,585,82,190
frame013.jpg,68,1350,624,66,152
frame013.jpg,99,1415,576,100,191
frame013.jpg,61,1752,656,128,110
frame013.jpg,40,1872,666,48,98
frame014.jpg,98,5,555,113,269
frame014.jpg,99,112,558,123,264
frame014.jpg,62,235,581,86,216
frame014.jpg,93,277,579,88,221
frame014.jpg,61,351,592,77,189
frame014.jpg,95,436,603,76,176
frame014.jpg,73,495,607,60,173
frame014.jpg,92,551,623,103,179
frame014.jpg,52,627,625,58,149
frame014.jpg,31,687,634,61,130
frame014.jpg,45,755,598,75,171
frame014.jpg,100,770,375,385,560
frame014.jpg,83,802,588,74,188
frame014.jpg,80,1129,575,71,202
frame014.jpg,88,1322,618,66,161
frame014.jpg,34,1330,625,50,66
frame014.jpg,99,1396,556,98,206
frame014.jpg,43,1720,661,69,80
frame014.jpg,30,1756,661,74,81
frame014.jpg,80,1834,673,77,90
frame015.jpg,96,8,553,89,254
frame015.jpg,93,94,547,128,253
frame015.jpg,98,227,564,99,225
frame015.jpg,89,301,569,80,213
frame015.jpg,26,372,584,77,189
frame015.jpg,94,434,595,70,179
frame015.jpg,72,473,603,62,151
frame015.jpg,98,528,603,94,192
frame015.jpg,29,593,608,58,171
frame015.jpg,78,614,630,62,134
frame015.jpg,55,726,618,60,148
frame015.jpg,56,746,589,74,178
frame015.jpg,100,768,359,398,562
frame015.jpg,82,784,581,87,184
frame015.jpg,56,1104,579,78,195
frame015.jpg,81,1309,620,66,151
frame015.jpg,99,1381,577,98,187
frame015.jpg,55,1703,667,94,92
frame015.jpg,52,1803,662,113,117
frame016.jpg,86,2,549,80,259
frame016.jpg,99,35,532,142,280
frame016.jpg,98,198,563,105,223
frame016.jpg,95,283,568,82,209
frame016.jpg,98,386,588,82,186
frame016.jpg,78,459,588,56,174
frame016.jpg,98,514,603,91,187
frame016.jpg,90,589,623,64,146
frame016.jpg,47,703,620,59,145
frame016.jpg,82,738,587,74,181
frame016.jpg,98,764,352,417,535
frame016.jpg,77,780,589,93,174
frame016.jpg,36,1049,623,66,140
frame016.jpg,96,1074,596,82,170
frame016.jpg,94,1282,616,67,166
frame016.jpg,97,1358,586,102,174
frame016.jpg,80,1664,671,98,93
frame016.jpg,48,1765,686,134,87
frame017.jpg,99,9,534,143,282
frame017.jpg,94,152,570,116,225
frame017.jpg,76,206,571,103,223
frame017.jpg,81,267,577,90,201
frame017.jpg,96,365,594,81,185
frame017.jpg,73,424,603,72,174
frame017.jpg,98,495,601,97,200
frame017.jpg,65,577,630,57,134
frame017.jpg,40,687,618,55,154
frame017.jpg,92,746,587,70,182
frame017.jpg,99,755,365,485,467
frame017.jpg,42,997,620,53,150
frame017.jpg,93,1045,579,82,194
frame017.jpg,61,1250,625,66,151
frame017.jpg,56,1277,625,58,144
frame017.jpg,99,1330,578,84,186
frame017.jpg,80,1629,674,93,90
frame017.jpg,34,1728,672,137,105
frame018.jpg,99,1,547,123,273
frame018.jpg,97,142,571,111,233
frame018.jpg,95,227,576,94,221
frame018.jpg,95,353,599,83,184
frame018.jpg,39,404,606,67,147
frame018.jpg,56,426,605,72,179
frame018.jpg,99,486,613,105,201
frame018.jpg,42,560,600,51,187
frame018.jpg,29,663,619,55,154
frame018.jpg,92,683,605,79,166
frame018.jpg,94,746,592,76,180
frame018.jpg,98,764,353,472,443
frame018.jpg,64,988,614,45,164
frame018.jpg,87,1030,593,76,180
frame018.jpg,75,1238,660,80,107
frame018.jpg,100,1318,571,87,198
frame018.jpg,69,1609,672,88,90
frame018.jpg,28,1719,668,130,105
frame019.jpg,99,1,548,123,271
frame019.jpg,98,142,571,111,233
frame019.jpg,96,227,576,94,221
frame019.jpg,95,353,599,83,184
frame019.jpg,40,404,607,67,147
frame019.jpg,57,427,605,72,180
frame019.jpg,99,486,613,105,201
frame019.jpg,41,575,623,48,146
frame019.jpg,30,663,619,55,154
frame019.jpg,92,683,605,79,166
frame019.jpg,94,747,592,76,180
frame019.jpg,98,764,352,472,444
frame019.jpg,63,988,614,46,163
frame019.jpg,87,1030,593,77,180
frame019.jpg,75,1244,621,73,157
frame019.jpg,100,1318,571,86,198
frame019.jpg,69,1609,672,88,90
frame019.jpg,29,1720,668,130,105
frame020.jpg,84,1,553,67,246
frame020.jpg,96,74,567,109,237
frame020.jpg,92,158,573,94,225
frame020.jpg,96,289,592,81,193
frame020.jpg,87,366,606,69,175
frame020.jpg,96,439,605,121,211
frame020.jpg,43,515,607,74,171
frame020.jpg,52,631,603,54,147
frame020.jpg,72,644,594,80,170
frame020.jpg,100,695,350,529,268
frame020.jpg,30,706,608,50,136
frame020.jpg,33,836,667,38,52
frame020.jpg,67,873,665,44,54
frame020.jpg,63,952,621,46,146
frame020.jpg,59,958,594,74,173
frame020.jpg,98,1005,576,83,193
frame020.jpg,92,1200,627,70,142
frame020.jpg,99,1271,579,88,182
frame020.jpg,81,1557,672,89,85
frame020.jpg,78,1655,679,100,81
frame020.jpg,76,1835,635,85,64
frame021.jpg,49,5,566,53,233
frame021.jpg,98,54,552,116,240
frame021.jpg,98,143,555,92,233
frame021.jpg,93,271,583,90,193
frame021.jpg,82,349,597,75,178
frame021.jpg,99,419,596,127,206
frame021.jpg,70,508,675,53,88
frame021.jpg,42,613,601,77,161
frame021.jpg,94,677,586,85,180
frame021.jpg,100,680,331,490,243
frame021.jpg,37,764,666,37,48
frame021.jpg,54,813,664,43,51
frame021.jpg,67,859,660,43,59
frame021.jpg,75,926,584,46,150
frame021.jpg,74,965,589,79,175
frame021.jpg,56,1000,578,83,189
frame021.jpg,65,1175,631,70,136
frame021.jpg,99,1248,574,88,189
frame021.jpg,85,1531,673,86,86
frame021.jpg,58,1634,685,87,75
frame021.jpg,90,1821,637,86,64
frame022.jpg,97,24,546,127,248
frame022.jpg,97,116,557,101,226
frame022.jpg,97,229,576,91,200
frame022.jpg,87,307,588,72,185
frame022.jpg,90,376,592,81,197
frame022.jpg,94,436,597,92,196
frame022.jpg,25,507,604,53,100
frame022.jpg,69,594,594,72,170
frame022.jpg,96,665,579,76,187
frame022.jpg,44,718,309,409,203
frame022.jpg,44,841,662,45,52
frame022.jpg,61,915,591,47,171
frame022.jpg,95,962,579,82,182
frame022.jpg,91,1166,633,69,132
frame022.jpg,99,1237,575,86,189
frame022.jpg,82,1520,672,82,88
frame022.jpg,77,1606,684,85,79
frame022.jpg,93,1788,641,81,66
frame022.jpg,87,1862,638,57,67
frame023.jpg,97,24,546,127,248
frame023.jpg,97,116,557,101,227
frame023.jpg,97,229,576,91,200
frame023.jpg,87,307,588,72,185
frame023.jpg,90,376,592,81,197
frame023.jpg,94,436,597,92,197
frame023.jpg,68,594,594,72,170
frame023.jpg,96,665,579,76,187
frame023.jpg,45,718,309,410,203
frame023.jpg,44,841,662,45,52
frame023.jpg,61,915,591,47,171
frame023.jpg,95,963,579,82,182
frame023.jpg,91,1166,633,69,132
frame023.jpg,99,1237,575,86,189
frame023.jpg,82,1520,672,82,88
frame023.jpg,76,1606,684,85,79
frame023.jpg,93,1788,640,81,66
frame023.jpg,87,1862,638,58,67
frame024.jpg,97,4,545,97,251
frame024.jpg,97,77,550,105,240
frame024.jpg,32,123,567,105,210
frame024.jpg,97,214,574,96,203
frame024.jpg,81,288,582,73,192
frame024.jpg,94,361,586,80,211
frame024.jpg,96,427,592,95,206
frame024.jpg,58,570,590,77,174
frame024.jpg,96,646,576,78,191
frame024.jpg,88,766,257,318,257
frame024.jpg,35,781,665,39,51
frame024.jpg,54,824,663,42,53
frame024.jpg,34,890,630,50,127
frame024.jpg,59,907,625,54,134
frame024.jpg,94,947,556,82,206
frame024.jpg,39,1139,633,66,131
frame024.jpg,59,1169,626,55,136
frame024.jpg,98,1219,583,89,176
frame024.jpg,86,1487,675,82,85
frame024.jpg,63,1586,682,92,81
frame024.jpg,27,1645,680,57,23
frame024.jpg,89,1761,643,78,61
frame024.jpg,94,1836,636,74,69
frame025.jpg,97,11,557,89,234
frame025.jpg,99,148,579,97,208
frame025.jpg,95,229,595,81,180
frame025.jpg,96,309,603,85,175
frame025.jpg,95,370,591,109,217
frame025.jpg,52,408,601,107,187
frame025.jpg,69,523,600,75,165
frame025.jpg,97,607,585,84,181
frame025.jpg,29,689,666,40,48
frame025.jpg,36,736,666,44,51
frame025.jpg,42,784,661,44,57
frame025.jpg,40,833,616,82,142
frame025.jpg,99,835,265,269,253
frame025.jpg,29,869,628,61,133
frame025.jpg,69,890,589,84,175
frame025.jpg,69,1093,664,67,98
frame025.jpg,98,1169,574,86,190
frame025.jpg,51,1445,671,80,85
frame025.jpg,67,1528,682,80,75
frame025.jpg,26,1619,678,54,23
frame025.jpg,66,1705,637,72,63
frame025.jpg,87,1759,635,76,64
frame026.jpg,97,11,557,89,234
frame026.jpg,99,148,579,97,208
frame026.jpg,95,229,595,81,180
frame026.jpg,96,309,604,85,175
frame026.jpg,95,371,591,109,217
frame026.jpg,52,408,601,107,188
frame026.jpg,69,523,600,75,165
frame026.jpg,97,607,585,84,181
frame026.jpg,29,689,666,39,48
frame026.jpg,36,736,666,44,51
frame026.jpg,42,784,661,44,57
frame026.jpg,40,833,616,82,142
frame026.jpg,99,836,265,269,253
frame026.jpg,29,869,628,61,133
frame026.jpg,69,890,589,84,175
frame026.jpg,69,1094,664,67,98
frame026.jpg,98,1168,574,86,190
frame026.jpg,51,1445,671,80,85
frame026.jpg,67,1528,682,80,75
frame026.jpg,26,1619,678,54,23
frame026.jpg,66,1705,637,72,63
frame026.jpg,87,1759,635,76,64
frame027.jpg,97,6,560,70,232
frame027.jpg,98,117,574,102,216
frame027.jpg,93,198,593,77,187
frame027.jpg,98,276,600,88,184
frame027.jpg,98,362,596,115,207
frame027.jpg,48,504,604,59,147
frame027.jpg,94,585,580,73,188
frame027.jpg,28,667,675,46,43
frame027.jpg,53,721,664,44,55
frame027.jpg,73,767,662,45,55
frame027.jpg,73,777,302,404,196
frame027.jpg,51,820,577,47,159
frame027.jpg,51,826,601,73,159
frame027.jpg,91,890,578,81,183
frame027.jpg,84,1092,632,59,132
frame027.jpg,97,1159,578,78,185
frame027.jpg,92,1417,673,82,83
frame027.jpg,75,1502,684,81,75
frame027.jpg,25,1575,679,49,24
frame027.jpg,87,1675,641,71,61
frame027.jpg,86,1742,636,75,68
frame028.jpg,88,6,565,67,223
frame028.jpg,97,82,576,108,214
frame028.jpg,77,153,588,94,192
frame028.jpg,75,193,600,85,177
frame028.jpg,97,263,597,87,187
frame028.jpg,98,349,591,125,218
frame028.jpg,57,461,601,82,162
frame028.jpg,99,563,580,84,188
frame028.jpg,41,656,668,37,49
frame028.jpg,52,702,663,44,55
frame028.jpg,100,737,314,394,236
frame028.jpg,45,752,662,39,57
frame028.jpg,40,808,587,49,142
frame028.jpg,62,818,602,71,162
frame028.jpg,96,876,555,79,210
frame028.jpg,52,1065,670,53,92
frame028.jpg,62,1097,631,51,125
frame028.jpg,91,1127,564,85,190
frame028.jpg,60,1396,675,77,79
frame028.jpg,62,1488,684,85,73
frame028.jpg,28,1540,680,56,23
frame028.jpg,93,1648,641,76,61
frame028.jpg,92,1716,638,70,62
frame029.jpg,99,52,569,117,224
frame029.jpg,98,157,589,86,189
frame029.jpg,99,234,602,97,180
frame029.jpg,99,328,595,125,230
frame029.jpg,90,460,596,73,164
frame029.jpg,81,555,584,82,179
frame029.jpg,30,614,668,80,98
frame029.jpg,60,686,663,45,57
frame029.jpg,56,739,661,44,58
frame029.jpg,92,747,308,296,331
frame029.jpg,56,809,627,52,133
frame029.jpg,95,863,585,95,174
frame029.jpg,83,1054,632,60,130
frame029.jpg,99,1120,581,86,181
frame029.jpg,86,1380,675,76,81
frame029.jpg,76,1465,686,74,73
frame029.jpg,26,1540,680,52,23
frame029.jpg,82,1636,644,61,59
frame029.jpg,95,1693,639,66,62
frame030.jpg,99,25,570,121,224
frame030.jpg,96,127,589,80,196
frame030.jpg,98,200,601,100,184
frame030.jpg,100,310,595,142,231
frame030.jpg,87,446,603,67,162
frame030.jpg,97,534,588,82,179
frame030.jpg,27,614,669,64,93
frame030.jpg,28,652,666,67,95
frame030.jpg,44,671,664,43,57
frame030.jpg,74,720,303,405,274
frame030.jpg,50,722,662,61,63
frame030.jpg,31,775,594,53,125
frame030.jpg,70,797,592,96,172
frame030.jpg,46,801,638,51,120
frame030.jpg,35,847,589,91,174
frame030.jpg,62,1030,667,52,96
frame030.jpg,81,1060,632,54,127
frame030.jpg,99,1102,574,76,190
frame030.jpg,69,1359,675,73,80
frame030.jpg,68,1449,685,80,73
frame030.jpg,91,1607,642,69,58
frame030.jpg,89,1671,638,68,64
frame031.jpg,99,8,571,98,225
frame031.jpg,97,96,588,85,198
frame031.jpg,99,180,603,104,179
frame031.jpg,99,301,598,154,227
frame031.jpg,44,435,598,55,163
frame031.jpg,96,518,584,82,183
frame031.jpg,33,577,668,78,99
frame031.jpg,89,638,306,539,275
frame031.jpg,45,651,663,54,62
frame031.jpg,41,704,663,47,57
frame031.jpg,37,767,611,50,128
frame031.jpg,94,811,578,85,185
frame031.jpg,85,1021,666,58,97
frame031.jpg,99,1090,574,80,192
frame031.jpg,81,1346,675,74,80
frame031.jpg,74,1429,686,75,71
frame031.jpg,77,1587,644,65,57
frame031.jpg,94,1648,640,64,60
frame032.jpg,98,2,563,83,231
frame032.jpg,99,70,580,101,204
frame032.jpg,99,148,600,115,184
frame032.jpg,97,251,597,200,228
frame032.jpg,28,357,591,105,192
frame032.jpg,26,424,594,47,172
frame032.jpg,99,486,576,95,195
frame032.jpg,25,577,671,68,91
frame032.jpg,35,594,671,40,44
frame032.jpg,100,637,321,601,261
frame032.jpg,41,638,662,43,57
frame032.jpg,60,690,663,46,53
frame032.jpg,64,741,581,51,150
frame032.jpg,27,769,622,50,144
frame032.jpg,97,808,575,84,188
frame032.jpg,44,1001,669,53,92
frame032.jpg,70,1024,636,51,124
frame032.jpg,98,1079,580,77,185
frame032.jpg,62,1338,674,72,82
frame032.jpg,66,1415,685,79,71
frame032.jpg,87,1569,645,65,58
frame032.jpg,72,1623,641,61,60
frame033.jpg,86,5,569,71,215
frame033.jpg,94,33,574,101,206
frame033.jpg,99,112,594,112,183
frame033.jpg,98,243,596,198,227
frame033.jpg,98,463,575,88,195
frame033.jpg,28,543,669,76,94
frame033.jpg,44,613,660,46,59
frame033.jpg,37,662,660,47,56
frame033.jpg,99,710,206,325,609
frame033.jpg,56,737,632,57,125
frame033.jpg,93,796,572,81,195
frame033.jpg,99,1036,585,92,188
frame033.jpg,74,1301,676,77,80
frame033.jpg,66,1385,687,74,71
frame033.jpg,76,1540,648,64,60
frame033.jpg,68,1599,645,63,62
frame034.jpg,98,9,581,93,207
frame034.jpg,99,91,590,122,196
frame034.jpg,99,237,597,196,226
frame034.jpg,98,449,577,96,188
frame034.jpg,31,535,671,72,89
frame034.jpg,42,600,661,43,59
frame034.jpg,40,654,664,41,52
frame034.jpg,38,702,585,49,145
frame034.jpg,99,706,198,318,692
frame034.jpg,69,729,629,54,131
frame034.jpg,82,791,580,79,185
frame034.jpg,36,965,661,50,106
frame034.jpg,51,990,635,47,128
frame034.jpg,92,1036,583,78,180
frame034.jpg,84,1285,676,69,79
frame034.jpg,73,1373,687,77,71
frame034.jpg,74,1528,647,55,57
frame034.jpg,92,1582,642,59,60
frame035.jpg,97,3,580,71,210
frame035.jpg,99,62,593,126,202
frame035.jpg,38,200,689,72,90
frame035.jpg,99,241,593,169,238
frame035.jpg,98,439,581,89,186
frame035.jpg,42,530,667,66,101
frame035.jpg,67,584,661,52,66
frame035.jpg,40,637,667,40,53
frame035.jpg,37,679,599,70,171
frame035.jpg,68,722,633,51,130
frame035.jpg,99,736,293,277,598
frame035.jpg,75,747,584,84,186
frame035.jpg,60,951,674,55,92
frame035.jpg,61,990,633,50,126
frame035.jpg,98,1028,582,74,184
frame035.jpg,79,1276,677,71,78
frame035.jpg,77,1356,686,67,72
frame035.jpg,70,1512,647,60,59
frame035.jpg,83,1568,643,61,62
frame036.jpg,99,35,595,140,198
frame036.jpg,99,235,595,170,233
frame036.jpg,99,417,577,94,198
frame036.jpg,66,505,669,77,98
frame036.jpg,53,566,665,62,100
frame036.jpg,29,577,664,45,56
frame036.jpg,32,628,667,41,52
frame036.jpg,37,671,597,71,170
frame036.jpg,99,701,365,423,552
frame036.jpg,48,704,633,51,128
frame036.jpg,62,739,581,70,189
frame036.jpg,66,945,677,53,88
frame036.jpg,28,987,669,46,91
frame036.jpg,95,1007,579,96,189
frame036.jpg,70,1273,675,65,82
frame036.jpg,77,1346,688,71,69
frame036.jpg,80,1497,649,61,55
frame036.jpg,65,1553,644,55,59
frame037.jpg,99,35,591,126,196
frame037.jpg,99,246,585,150,235
frame037.jpg,99,412,574,94,199
frame037.jpg,52,502,669,71,96
frame037.jpg,42,542,665,71,99
frame037.jpg,40,561,664,47,55
frame037.jpg,45,617,665,47,53
frame037.jpg,63,696,632,50,131
frame037.jpg,100,727,407,413,534
frame037.jpg,33,735,591,69,177
frame037.jpg,61,1000,590,102,175
frame037.jpg,66,1252,678,66,81
frame037.jpg,55,1336,688,77,73
frame037.jpg,56,1495,648,46,62
frame037.jpg,88,1544,648,59,61
frame038.jpg,27,1,621,37,149
frame038.jpg,99,16,584,139,193
frame038.jpg,35,170,674,77,97
frame038.jpg,99,254,584,138,224
frame038.jpg,97,407,573,92,197
frame038.jpg,25,500,666,63,92
frame038.jpg,50,553,660,56,64
frame038.jpg,32,615,662,42,54
frame038.jpg,25,661,591,48,130
frame038.jpg,41,665,599,79,165
frame038.jpg,60,718,590,86,178
frame038.jpg,100,759,417,295,481
frame038.jpg,62,956,636,54,125
frame038.jpg,86,1003,597,83,169
frame038.jpg,73,1250,678,65,80
frame038.jpg,59,1327,687,60,74
frame038.jpg,54,1480,652,58,57
frame038.jpg,82,1538,647,59,61
frame039.jpg,100,11,582,135,200
frame039.jpg,50,158,675,81,94
frame039.jpg,100,254,581,130,230
frame039.jpg,94,384,579,89,184
frame039.jpg,53,546,660,54,66
frame039.jpg,44,600,665,40,50
frame039.jpg,50,660,576,46,157
frame039.jpg,64,686,634,49,121
frame039.jpg,41,719,583,78,185
frame039.jpg,99,758,451,288,477
frame039.jpg,52,913,675,63,88
frame039.jpg,90,999,587,80,174
frame039.jpg,77,1243,676,65,80
frame039.jpg,27,1276,678,45,79
frame039.jpg,76,1320,685,63,75
frame039.jpg,69,1481,653,47,52
frame039.jpg,83,1527,650,62,60
frame040.jpg,99,250,583,130,236
frame040.jpg,99,376,577,95,193
frame040.jpg,47,388,560,906,257
frame040.jpg,35,464,669,79,97
frame040.jpg,57,538,663,57,63
frame040.jpg,41,591,666,48,51
frame040.jpg,100,595,472,521,452
frame040.jpg,74,656,569,51,172
frame040.jpg,56,726,577,64,122
frame040.jpg,47,910,673,61,91
frame040.jpg,90,978,589,83,175
frame040.jpg,71,1237,678,64,79
frame040.jpg,72,1311,688,67,72
frame040.jpg,65,1463,657,61,51
frame040.jpg,64,1515,651,57,57
frame041.jpg,99,1,588,110,206
frame041.jpg,60,127,688,86,85
frame041.jpg,100,237,591,145,240
frame041.jpg,99,374,577,93,197
frame041.jpg,45,471,669,66,98
frame041.jpg,51,514,666,61,98
frame041.jpg,25,591,587,90,177
frame041.jpg,100,626,489,564,432
frame041.jpg,28,720,591,84,180
frame041.jpg,57,904,665,62,105
frame041.jpg,35,948,637,49,122
frame041.jpg,71,967,629,90,138
frame041.jpg,60,1237,680,59,79
frame041.jpg,57,1308,694,63,70
frame041.jpg,55,1455,658,62,50
frame041.jpg,81,1510,651,59,59
frame042.jpg,99,5,592,90,203
frame042.jpg,33,119,686,81,91
frame042.jpg,100,230,594,153,235
frame042.jpg,97,365,584,91,192
frame042.jpg,39,461,671,65,96
frame042.jpg,43,504,666,70,99
frame042.jpg,26,519,669,49,52
frame042.jpg,28,577,668,43,55
frame042.jpg,99,578,475,565,434
frame042.jpg,34,629,580,50,154
frame042.jpg,64,646,607,79,168
frame042.jpg,56,718,594,81,176
frame042.jpg,33,881,660,67,107
frame042.jpg,26,912,665,59,101
frame042.jpg,36,947,642,60,117
frame042.jpg,57,974,638,71,124
frame042.jpg,79,1214,682,58,78
frame042.jpg,36,1247,682,42,79
frame042.jpg,61,1293,695,60,69
frame042.jpg,51,1441,656,61,54
frame042.jpg,84,1501,651,59,59
frame043.jpg,37,121,665,73,114
frame043.jpg,99,227,588,148,247
frame043.jpg,99,349,579,89,195
frame043.jpg,38,462,670,58,95
frame043.jpg,27,467,668,41,52
frame043.jpg,49,508,662,56,64
frame043.jpg,45,564,668,43,52
frame043.jpg,99,612,423,590,434
frame043.jpg,71,621,570,51,174
frame043.jpg,58,654,633,45,125
frame043.jpg,47,674,584,72,187
frame043.jpg,49,879,669,58,100
frame043.jpg,45,921,638,56,126
frame043.jpg,61,985,672,57,93
frame043.jpg,79,1207,681,62,78
frame043.jpg,36,1245,682,40,76
frame043.jpg,70,1288,696,56,67
frame043.jpg,68,1447,654,46,54
frame043.jpg,80,1493,650,59,59
frame044.jpg,64,91,661,92,113
frame044.jpg,96,226,594,153,235
frame044.jpg,91,345,582,83,188
frame044.jpg,41,499,661,60,69
frame044.jpg,83,616,568,57,173
frame044.jpg,99,639,351,562,415
frame044.jpg,63,669,577,85,190
frame044.jpg,60,874,664,56,102
frame044.jpg,81,914,638,56,122
frame044.jpg,52,983,666,53,98
frame044.jpg,80,1201,679,65,79
frame044.jpg,70,1275,688,64,71
frame044.jpg,76,1436,653,49,57
frame044.jpg,67,1477,649,59,60
frame045.jpg,58,88,657,86,118
frame045.jpg,99,207,570,197,260
frame045.jpg,36,343,587,81,183
frame045.jpg,29,436,671,67,90
frame045.jpg,32,497,660,51,68
frame045.jpg,35,546,667,42,52
frame045.jpg,52,627,623,50,149
frame045.jpg,98,631,388,566,300
frame045.jpg,64,665,610,97,156
frame045.jpg,82,869,668,59,100
frame045.jpg,54,913,636,50,126
frame045.jpg,91,941,631,81,139
frame045.jpg,75,1199,679,61,83
frame045.jpg,81,1271,694,67,72
frame045.jpg,59,1424,651,46,64
frame045.jpg,79,1474,650,57,61
frame046.jpg,88,1,616,43,163
frame046.jpg,38,79,667,80,111
frame046.jpg,94,200,577,112,242
frame046.jpg,59,241,597,142,230
frame046.jpg,31,344,589,76,184
frame046.jpg,25,387,662,69,110
frame046.jpg,35,426,668,68,95
frame046.jpg,29,470,665,70,97
frame046.jpg,44,483,665,52,53
frame046.jpg,42,538,659,52,68
frame046.jpg,57,594,574,50,163
frame046.jpg,55,615,624,54,142
frame046.jpg,98,652,577,92,188
frame046.jpg,96,701,389,468,278
frame046.jpg,48,868,660,57,107
frame046.jpg,37,907,634,54,132
frame046.jpg,94,938,631,72,139
frame046.jpg,68,1178,680,62,81
frame046.jpg,48,1253,694,65,70
frame046.jpg,43,1421,649,45,65
frame046.jpg,82,1466,649,56,62
frame047.jpg,44,2,635,31,156
frame047.jpg,62,34,655,124,126
frame047.jpg,71,190,585,101,227
frame047.jpg,94,206,585,200,259
frame047.jpg,33,365,664,66,109
frame047.jpg,30,420,669,63,98
frame047.jpg,44,471,663,56,64
frame047.jpg,36,527,668,43,53
frame047.jpg,37,581,572,47,167
frame047.jpg,77,616,623,49,148
frame047.jpg,99,651,576,85,194
frame047.jpg,97,782,433,334,262
frame047.jpg,54,847,671,52,97
frame047.jpg,70,883,635,53,129
frame047.jpg,88,929,633,72,137
frame047.jpg,84,1170,682,67,78
frame047.jpg,53,1245,687,65,74
frame047.jpg,58,1410,654,44,54
frame047.jpg,57,1454,651,60,60
frame048.jpg,46,53,653,73,134
frame048.jpg,74,167,580,87,204
frame048.jpg,97,191,579,182,266
frame048.jpg,25,358,661,50,67
frame048.jpg,53,398,668,72,101
frame048.jpg,27,409,668,45,50
frame048.jpg,45,456,664,64,100
frame048.jpg,28,467,666,47,55
frame048.jpg,30,519,670,46,49
frame048.jpg,34,579,570,45,174
frame048.jpg,39,587,629,51,137
frame048.jpg,31,611,627,51,140
frame048.jpg,99,642,573,79,199
frame048.jpg,69,839,675,54,93
frame048.jpg,99,841,404,307,305
frame048.jpg,69,883,638,49,125
frame048.jpg,75,914,638,64,123
frame048.jpg,73,1164,680,65,80
frame048.jpg,61,1237,688,68,73
frame048.jpg,70,1400,653,45,58
frame048.jpg,71,1442,650,56,59
frame049.jpg,48,8,653,106,135
frame049.jpg,83,167,576,79,206
frame049.jpg,98,191,579,184,267
frame049.jpg,46,389,669,74,99
frame049.jpg,61,431,663,79,105
frame049.jpg,33,508,668,41,53
frame049.jpg,69,585,622,57,152
frame049.jpg,98,633,576,84,195
frame049.jpg,68,833,669,60,100
frame049.jpg,81,880,636,50,127
frame049.jpg,96,890,373,320,376
frame049.jpg,68,903,627,59,141
frame049.jpg,42,1162,679,62,85
frame049.jpg,47,1235,693,61,73
frame049.jpg,54,1389,650,43,64
frame049.jpg,67,1432,648,55,63
frame050.jpg,48,8,652,106,136
frame050.jpg,81,167,576,79,206
frame050.jpg,99,191,579,184,267
frame050.jpg,45,389,669,74,99
frame050.jpg,61,431,663,80,105
frame050.jpg,32,508,668,41,53
frame050.jpg,68,585,622,57,152
frame050.jpg,98,633,576,84,195
frame050.jpg,69,833,669,60,100
frame050.jpg,81,880,636,50,127
frame050.jpg,96,890,373,321,375
frame050.jpg,67,903,627,59,140
frame050.jpg,43,1162,679,62,85
frame050.jpg,48,1235,693,61,72
frame050.jpg,55,1389,650,43,64
frame050.jpg,68,1432,648,55,63
frame051.jpg,74,5,646,75,145
frame051.jpg,98,128,581,94,213
frame051.jpg,100,189,573,177,277
frame051.jpg,32,431,664,58,61
frame051.jpg,38,485,673,49,50
frame051.jpg,93,542,578,51,158
frame051.jpg,33,577,631,56,132
frame051.jpg,97,591,583,100,187
frame051.jpg,74,808,690,64,84
frame051.jpg,100,901,458,302,442
frame051.jpg,87,1137,683,66,81
frame051.jpg,81,1214,697,58,69
frame051.jpg,65,1369,667,43,47
frame051.jpg,63,1416,653,59,59
frame052.jpg,75,2,643,56,148
frame052.jpg,99,114,581,94,207
frame052.jpg,100,185,569,178,287
frame052.jpg,34,310,663,69,112
frame052.jpg,37,362,667,67,103
frame052.jpg,33,423,664,57,61
frame052.jpg,33,477,672,48,50
frame052.jpg,88,539,569,46,170
frame052.jpg,30,544,571,876,233
frame052.jpg,96,585,581,95,188
frame052.jpg,61,801,690,54,84
frame052.jpg,100,884,437,336,498
frame052.jpg,81,1128,684,63,78
frame052.jpg,89,1203,696,58,69
frame052.jpg,28,1293,688,33,24
frame052.jpg,65,1363,654,45,59
frame052.jpg,82,1404,652,53,59
frame053.jpg,98,107,580,92,210
frame053.jpg,100,180,572,178,277
frame053.jpg,28,295,625,1359,155
frame053.jpg,30,354,664,64,102
frame053.jpg,58,396,662,75,108
frame053.jpg,52,406,664,60,58
frame053.jpg,43,467,662,55,65
frame053.jpg,35,526,573,43,159
frame053.jpg,60,546,624,57,148
frame053.jpg,98,584,581,95,192
frame053.jpg,100,852,472,464,454
frame053.jpg,66,1126,683,60,79
frame053.jpg,83,1196,697,61,70
frame053.jpg,64,1354,651,46,64
frame053.jpg,73,1398,650,53,62
frame054.jpg,28,11,640,76,155
frame054.jpg,99,86,582,108,212
frame054.jpg,100,166,576,196,274
frame054.jpg,45,391,667,76,102
frame054.jpg,57,401,664,60,60
frame054.jpg,40,457,661,60,68
frame054.jpg,74,519,577,44,156
frame054.jpg,54,541,630,58,137
frame054.jpg,96,573,580,91,203
frame054.jpg,61,787,691,63,85
frame054.jpg,100,795,511,646,434
frame054.jpg,56,1106,699,66,68
frame054.jpg,54,1180,705,65,64
frame054.jpg,59,1350,658,47,63
frame054.jpg,68,1388,654,63,68
frame055.jpg,29,11,641,76,155
frame055.jpg,99,86,583,108,212
frame055.jpg,100,167,576,195,273
frame055.jpg,46,391,667,76,102
frame055.jpg,57,401,663,60,60
frame055.jpg,40,457,661,60,68
frame055.jpg,72,519,577,44,155
frame055.jpg,54,541,630,58,138
frame055.jpg,96,574,579,90,203
frame055.jpg,61,787,691,63,85
frame055.jpg,100,794,512,647,433
frame055.jpg,56,1106,699,66,68
frame055.jpg,55,1180,705,65,64
frame055.jpg,58,1349,658,47,62
frame055.jpg,67,1388,655,63,68
frame056.jpg,99,64,582,113,214
frame056.jpg,100,155,583,201,267
frame056.jpg,49,387,657,63,116
frame056.jpg,57,504,576,47,160
frame056.jpg,26,516,621,49,154
frame056.jpg,52,534,638,59,146
frame056.jpg,98,566,578,89,206
frame056.jpg,50,572,583,867,259
frame056.jpg,82,766,690,61,84
frame056.jpg,100,808,490,499,471
frame056.jpg,50,815,657,50,113
frame056.jpg,78,836,638,60,126
frame056.jpg,28,1173,698,58,69
frame056.jpg,51,1335,666,43,51
frame056.jpg,57,1382,657,56,70
frame057.jpg,99,64,582,113,214
frame057.jpg,100,155,583,201,267
frame057.jpg,49,387,657,63,116
frame057.jpg,57,504,575,47,160
frame057.jpg,26,516,621,49,154
frame057.jpg,52,534,638,59,146
frame057.jpg,98,566,578,89,206
frame057.jpg,50,572,583,867,259
frame057.jpg,82,766,690,61,84
frame057.jpg,100,808,489,499,471
frame057.jpg,50,815,657,50,113
frame057.jpg,78,836,638,60,126
frame057.jpg,28,1173,698,58,69
frame057.jpg,51,1335,666,43,51
frame057.jpg,57,1382,657,56,70
frame058.jpg,99,53,576,123,213
frame058.jpg,100,146,580,209,264
frame058.jpg,38,385,660,61,67
frame058.jpg,40,506,579,44,157
frame058.jpg,54,508,599,73,169
frame058.jpg,97,564,573,85,203
frame058.jpg,54,764,690,59,82
frame058.jpg,35,808,634,44,125
frame058.jpg,83,815,606,103,161
frame058.jpg,100,830,461,364,496
frame058.jpg,56,1166,697,61,69
frame058.jpg,69,1331,666,42,49
frame058.jpg,36,1371,654,50,59
frame059.jpg,99,39,575,125,207
frame059.jpg,99,158,579,200,264
frame059.jpg,31,355,659,86,109
frame059.jpg,51,382,661,62,65
frame059.jpg,25,429,668,43,51
frame059.jpg,62,511,598,77,174
frame059.jpg,95,557,577,88,199
frame059.jpg,64,758,670,63,101
frame059.jpg,97,819,612,102,157
frame059.jpg,100,842,440,349,504
frame059.jpg,47,1081,692,71,77
frame059.jpg,63,1158,700,65,68
frame059.jpg,62,1327,663,41,54
frame059.jpg,47,1368,656,52,65
frame060.jpg,100,30,567,121,212
frame060.jpg,42,154,560,99,171
frame060.jpg,99,163,564,193,274
frame060.jpg,39,366,658,62,67
frame060.jpg,28,420,662,61,59
frame060.jpg,37,485,577,49,119
frame060.jpg,72,509,598,89,174
frame060.jpg,57,556,571,91,200
frame060.jpg,72,781,595,123,177
frame060.jpg,100,839,423,443,502
frame060.jpg,36,1069,685,61,76
frame060.jpg,34,1154,700,66,68
frame060.jpg,72,1321,659,41,60
frame060.jpg,54,1361,656,57,64
frame061.jpg,99,24,571,120,212
frame061.jpg,66,150,566,103,154
frame061.jpg,98,154,579,199,268
frame061.jpg,44,358,661,66,64
frame061.jpg,65,470,597,69,175
frame061.jpg,48,505,614,54,169
frame061.jpg,78,526,593,78,182
frame061.jpg,35,556,589,88,187
frame061.jpg,98,687,433,570,479
frame061.jpg,35,751,693,60,82
frame061.jpg,33,804,639,56,126
frame061.jpg,93,831,632,67,143
frame061.jpg,32,876,635,39,138
frame061.jpg,82,1066,693,61,77
frame061.jpg,66,1145,701,55,69
frame061.jpg,83,1317,658,38,64
frame061.jpg,73,1356,658,56,63
frame062.jpg,98,8,580,99,210
frame062.jpg,95,121,571,101,222
frame062.jpg,99,161,579,193,270
frame062.jpg,37,342,660,68,110
frame062.jpg,95,462,591,68,183
frame062.jpg,97,520,577,88,200
frame062.jpg,98,661,380,533,462
frame062.jpg,57,726,691,65,82
frame062.jpg,99,802,593,75,184
frame062.jpg,54,1051,694,71,76
frame062.jpg,74,1132,700,59,69
frame062.jpg,40,1301,663,42,54
frame062.jpg,52,1350,656,53,71
frame063.jpg,99,5,578,96,216
frame063.jpg,99,106,570,109,217
frame063.jpg,99,171,576,187,277
frame063.jpg,58,323,661,77,109
frame063.jpg,37,393,665,52,66
frame063.jpg,95,448,598,74,177
frame063.jpg,97,509,578,91,202
frame063.jpg,99,651,311,586,463
frame063.jpg,73,717,691,68,84
frame063.jpg,39,768,635,49,132
frame063.jpg,94,801,606,72,186
frame063.jpg,87,1041,693,75,78
frame063.jpg,79,1126,701,64,71
frame063.jpg,69,1298,665,41,51
frame063.jpg,38,1345,657,55,69
frame064.jpg,98,3,574,89,209
frame064.jpg,99,102,566,108,225
frame064.jpg,98,167,582,194,262
frame064.jpg,59,321,661,69,61
frame064.jpg,54,382,664,56,62
frame064.jpg,81,455,604,70,173
frame064.jpg,87,503,579,86,201
frame064.jpg,99,683,292,516,316
frame064.jpg,59,716,621,114,154
frame064.jpg,96,804,618,78,159
frame064.jpg,42,844,633,45,140
frame064.jpg,58,1040,691,74,80
frame064.jpg,54,1121,699,65,72
frame064.jpg,68,1291,662,43,56
frame064.jpg,37,1340,660,39,58
frame065.jpg,96,4,574,71,216
frame065.jpg,97,82,560,114,231
frame065.jpg,99,154,584,196,266
frame065.jpg,28,316,664,66,61
frame065.jpg,76,437,600,71,174
frame065.jpg,97,502,570,82,216
frame065.jpg,100,640,247,524,321
frame065.jpg,55,696,691,73,85
frame065.jpg,98,778,585,86,192
frame065.jpg,28,846,642,36,137
frame065.jpg,68,1030,694,65,76
frame065.jpg,26,1106,703,64,69
frame065.jpg,72,1287,661,41,58
frame065.jpg,62,1325,658,59,63
frame066.jpg,97,5,572,66,222
frame066.jpg,99,66,569,121,221
frame066.jpg,99,141,587,212,259
frame066.jpg,89,425,608,81,169
frame066.jpg,98,488,572,95,219
frame066.jpg,99,617,264,570,329
frame066.jpg,96,740,588,121,190
frame066.jpg,51,1022,694,68,77
frame066.jpg,30,1104,702,61,70
frame066.jpg,57,1279,661,40,60
frame066.jpg,56,1319,657,56,64
frame067.jpg,96,3,575,56,222
frame067.jpg,99,58,569,120,227
frame067.jpg,100,135,588,218,261
frame067.jpg,37,286,669,76,56
frame067.jpg,36,352,668,58,62
frame067.jpg,83,422,601,87,181
frame067.jpg,98,485,569,87,227
frame067.jpg,64,684,692,66,84
frame067.jpg,97,740,206,365,399
frame067.jpg,99,750,600,102,176
frame067.jpg,54,1015,696,69,75
frame067.jpg,48,1097,702,55,71
frame067.jpg,39,1281,663,36,56
frame067.jpg,57,1317,659,54,67
frame068.jpg,27,1,566,26,175
frame068.jpg,99,38,572,127,225
frame068.jpg,100,133,590,214,263
frame068.jpg,49,279,671,71,59
frame068.jpg,38,394,620,87,155
frame068.jpg,89,428,592,91,197
frame068.jpg,92,484,569,89,226
frame068.jpg,75,676,693,72,86
frame068.jpg,99,744,604,100,177
frame068.jpg,99,795,231,310,424
frame068.jpg,55,820,646,40,133
frame068.jpg,66,1007,697,71,77
frame068.jpg,50,1090,703,61,72
frame068.jpg,26,1263,665,43,54
frame069.jpg,100,25,573,124,230
frame069.jpg,100,128,584,215,274
frame069.jpg,81,404,632,100,158
frame069.jpg,56,486,579,93,214
frame069.jpg,67,673,695,66,83
frame069.jpg,98,741,601,97,176
frame069.jpg,100,799,289,372,384
frame069.jpg,44,814,645,38,133
frame069.jpg,65,995,695,67,77
frame069.jpg,49,1080,704,67,71
frame069.jpg,70,1260,665,39,52
frame069.jpg,46,1302,662,41,56
frame070.jpg,99,12,566,131,232
frame070.jpg,100,128,586,208,270
frame070.jpg,92,390,603,80,187
frame070.jpg,87,431,577,105,216
frame070.jpg,44,494,571,91,219
frame070.jpg,67,656,694,75,83
frame070.jpg,97,730,599,100,178
frame070.jpg,100,801,333,382,317
frame070.jpg,38,805,647,39,129
frame070.jpg,76,990,694,64,78
frame070.jpg,54,1068,702,58,72
frame070.jpg,68,1249,664,45,55
frame070.jpg,50,1291,659,56,62
frame071.jpg,99,2,564,119,220
frame071.jpg,100,134,581,198,274
frame071.jpg,89,391,600,74,186
frame071.jpg,84,422,579,96,208
frame071.jpg,72,648,687,74,89
frame071.jpg,96,735,595,84,180
frame071.jpg,100,782,329,386,302
frame071.jpg,80,984,695,67,76
frame071.jpg,54,1066,702,53,71
frame071.jpg,72,1247,659,36,62
frame071.jpg,50,1283,658,55,64
frame072.jpg,100,7,563,99,222
frame072.jpg,100,134,574,197,279
frame072.jpg,35,290,663,67,57
frame072.jpg,78,389,607,70,172
frame072.jpg,95,417,575,98,210
frame072.jpg,88,644,690,72,85
frame072.jpg,97,724,627,98,145
frame072.jpg,100,773,340,414,352
frame072.jpg,49,778,651,49,125
frame072.jpg,72,976,695,70,76
frame072.jpg,73,1057,705,57,71
frame072.jpg,35,1242,663,38,58
frame072.jpg,33,1284,663,40,57
frame073.jpg,99,6,559,87,229
frame073.jpg,100,135,573,191,283
frame073.jpg,81,388,601,76,181
frame073.jpg,93,413,572,92,219
frame073.jpg,79,638,692,69,86
frame073.jpg,99,659,340,522,432
frame073.jpg,99,712,620,89,164
frame073.jpg,36,783,647,43,131
frame073.jpg,65,973,694,64,82
frame073.jpg,72,1225,672,49,51
frame073.jpg,57,1277,663,56,64
frame074.jpg,99,1,563,84,223
frame074.jpg,100,119,572,186,295
frame074.jpg,57,364,643,65,138
frame074.jpg,90,375,593,87,193
frame074.jpg,92,403,573,105,218
frame074.jpg,100,613,387,502,472
frame074.jpg,70,621,692,78,85
frame074.jpg,96,704,639,101,143
frame074.jpg,42,1040,705,77,70
frame074.jpg,82,1225,669,37,52
frame074.jpg,56,1266,667,38,53
frame074.jpg,37,1272,661,52,70
frame075.jpg,100,117,573,185,304
frame075.jpg,49,353,646,63,134
frame075.jpg,95,371,573,90,215
frame075.jpg,58,407,566,92,223
frame075.jpg,100,598,453,536,454
frame075.jpg,85,613,691,72,88
frame075.jpg,45,672,638,40,125
frame075.jpg,97,698,636,99,146
frame075.jpg,63,763,646,45,131
frame075.jpg,54,966,695,49,76
frame075.jpg,41,1031,705,54,70
frame075.jpg,90,1216,666,42,56
frame075.jpg,68,1259,663,43,57
frame076.jpg,100,103,568,196,308
frame076.jpg,97,365,571,98,220
frame076.jpg,90,602,691,76,87
frame076.jpg,100,620,440,611,519
frame076.jpg,57,666,641,41,117
frame076.jpg,93,696,628,100,148
frame076.jpg,31,757,648,46,128
frame076.jpg,55,947,697,64,74
frame076.jpg,78,1021,706,59,70
frame076.jpg,27,1143,699,37,21
frame076.jpg,79,1206,664,42,60
frame076.jpg,65,1246,659,54,67
frame077.jpg,35,1,565,30,141
frame077.jpg,35,11,646,93,148
frame077.jpg,100,105,575,176,296
frame077.jpg,28,315,642,83,146
frame077.jpg,99,347,570,112,222
frame077.jpg,91,596,694,78,86
frame077.jpg,100,612,420,670,562
frame077.jpg,99,675,606,101,179
frame077.jpg,27,747,644,44,139
frame077.jpg,49,940,698,64,78
frame077.jpg,63,1018,712,61,65
frame077.jpg,50,1243,661,58,80
frame078.jpg,37,7,639,86,161
frame078.jpg,100,97,578,180,290
frame078.jpg,54,322,639,61,156
frame078.jpg,98,334,573,118,223
frame078.jpg,100,577,420,720,542
frame078.jpg,85,585,698,74,84
frame078.jpg,36,651,647,47,133
frame078.jpg,99,671,611,96,174
frame078.jpg,33,740,648,45,131
frame078.jpg,29,1052,705,80,18
frame078.jpg,28,1109,703,38,19
frame078.jpg,37,1143,702,42,21
frame078.jpg,74,1190,673,46,50
frame078.jpg,73,1239,664,57,66
frame079.jpg,53,1,647,81,66
frame079.jpg,100,86,575,196,297
frame079.jpg,45,314,645,61,144
frame079.jpg,98,331,569,118,227
frame079.jpg,72,579,695,74,86
frame079.jpg,97,666,606,91,181
frame079.jpg,100,667,392,351,575
frame079.jpg,40,729,645,55,133
frame079.jpg,40,993,706,66,72
frame079.jpg,73,1191,672,37,50
frame079.jpg,34,1227,672,40,48
frame079.jpg,38,1232,665,56,67
frame080.jpg,100,72,570,212,305
frame080.jpg,54,302,638,83,158
frame080.jpg,98,328,568,116,227
frame080.jpg,83,571,694,78,86
frame080.jpg,35,633,636,38,121
frame080.jpg,100,644,377,422,608
frame080.jpg,97,659,604,96,182
frame080.jpg,89,1185,669,38,54
frame080.jpg,58,1222,662,50,66
frame081.jpg,44,2,646,58,64
frame081.jpg,100,63,571,221,302
frame081.jpg,27,294,659,58,119
frame081.jpg,97,322,565,116,229
frame081.jpg,100,452,417,669,531
frame081.jpg,84,561,690,79,86
frame081.jpg,44,627,640,45,81
frame081.jpg,36,640,629,89,94
frame081.jpg,60,908,697,66,77
frame081.jpg,90,1175,669,43,54
frame081.jpg,68,1219,666,42,54
frame082.jpg,33,5,652,39,55
frame082.jpg,100,60,574,219,300
frame082.jpg,37,63,658,37,62
frame082.jpg,40,286,684,58,103
frame082.jpg,92,328,572,103,224
frame082.jpg,89,405,434,774,516
frame082.jpg,80,559,696,78,87
frame082.jpg,88,645,640,94,147
frame082.jpg,76,906,700,64,75
frame082.jpg,70,984,708,61,72
frame082.jpg,92,1173,670,37,61
frame082.jpg,78,1213,668,42,58
frame083.jpg,38,1,661,28,59
frame083.jpg,100,61,572,220,312
frame083.jpg,28,279,682,67,112
frame083.jpg,95,303,578,110,230
frame083.jpg,100,449,416,719,538
frame083.jpg,74,546,698,80,93
frame083.jpg,94,633,596,102,188
frame083.jpg,79,902,703,71,77
frame083.jpg,73,980,716,64,70
frame083.jpg,83,1170,669,36,65
frame083.jpg,73,1209,671,41,59
frame084.jpg,46,1,661,27,60
frame084.jpg,53,35,666,53,67
frame084.jpg,100,58,577,220,305
frame084.jpg,97,299,574,108,233
frame084.jpg,46,345,564,87,239
frame084.jpg,96,475,402,671,563
frame084.jpg,85,544,696,81,96
frame084.jpg,40,617,646,45,136
frame084.jpg,87,632,600,80,187
frame084.jpg,83,900,703,69,77
frame084.jpg,78,974,714,68,72
frame084.jpg,65,1171,670,35,62
frame084.jpg,64,1207,670,40,59
frame085.jpg,49,28,662,60,65
frame085.jpg,100,62,568,222,308
frame085.jpg,98,290,573,115,227
frame085.jpg,38,342,567,86,229
frame085.jpg,99,482,315,650,451
frame085.jpg,82,540,694,74,95
frame085.jpg,29,603,644,36,103
frame085.jpg,88,684,646,62,137
frame085.jpg,73,898,699,62,79
frame085.jpg,42,969,703,72,79
frame085.jpg,70,1158,671,40,55
frame085.jpg,51,1203,665,55,65
frame086.jpg,68,28,660,70,65
frame086.jpg,100,66,563,229,314
frame086.jpg,96,283,572,126,227
frame086.jpg,51,479,256,637,443
frame086.jpg,64,535,694,77,90
frame086.jpg,37,595,641,49,144
frame086.jpg,98,624,601,94,186
frame086.jpg,72,696,641,51,144
frame086.jpg,33,882,700,67,77
frame086.jpg,54,1156,670,43,56
frame086.jpg,31,1206,667,39,59
frame087.jpg,26,1,648,28,90
frame087.jpg,71,21,661,67,68
frame087.jpg,100,73,569,220,304
frame087.jpg,99,280,570,131,234
frame087.jpg,85,480,243,611,531
frame087.jpg,65,534,696,78,92
frame087.jpg,90,598,602,113,181
frame087.jpg,83,691,646,50,143
frame087.jpg,59,1158,673,40,56
frame088.jpg,60,22,660,67,68
frame088.jpg,100,89,564,208,307
frame088.jpg,27,233,581,79,207
frame088.jpg,99,271,570,135,234
frame088.jpg,98,493,180,611,585
frame088.jpg,91,528,696,80,93
frame088.jpg,27,595,634,45,161
frame088.jpg,89,600,604,111,177
frame088.jpg,83,686,648,54,138
frame088.jpg,64,1154,674,43,55
frame089.jpg,72,16,656,73,67
frame089.jpg,100,102,558,200,317
frame089.jpg,27,235,579,80,209
frame089.jpg,99,277,568,130,235
frame089.jpg,26,392,574,49,162
frame089.jpg,89,525,695,81,91
frame089.jpg,90,600,610,110,170
frame089.jpg,87,682,648,56,135
frame089.jpg,97,732,164,382,599
frame089.jpg,35,1156,672,36,55
frame090.jpg,58,12,655,75,68
frame090.jpg,100,103,556,197,323
frame090.jpg,37,235,576,83,214
frame090.jpg,99,270,568,135,234
frame090.jpg,89,521,693,83,91
frame090.jpg,90,597,613,111,169
frame090.jpg,89,679,648,58,136
frame090.jpg,99,724,216,366,453
frame090.jpg,64,1156,672,35,55
frame090.jpg,37,1189,673,42,55
frame091.jpg,64,10,653,76,72
frame091.jpg,100,102,553,202,322
frame091.jpg,30,232,576,86,214
frame091.jpg,99,269,565,134,236
frame091.jpg,87,520,693,84,91
frame091.jpg,93,596,614,117,166
frame091.jpg,72,679,648,56,133
frame091.jpg,100,734,284,390,387
frame091.jpg,26,877,700,65,80
frame091.jpg,69,1153,673,40,56
frame091.jpg,41,1182,673,52,59
frame092.jpg,66,14,655,72,70
frame092.jpg,100,109,555,192,319
frame092.jpg,30,232,565,85,230
frame092.jpg,99,271,564,133,241
frame092.jpg,29,391,572,50,163
frame092.jpg,89,521,694,82,92
frame092.jpg,25,588,646,30,57
frame092.jpg,91,598,615,107,168
frame092.jpg,75,677,647,61,137
frame092.jpg,100,734,285,397,371
frame092.jpg,48,876,702,66,78
frame092.jpg,51,1149,674,43,57
frame092.jpg,27,1188,675,42,54
frame093.jpg,72,15,655,71,68
frame093.jpg,100,113,556,188,318
frame093.jpg,99,270,566,133,240
frame093.jpg,39,392,572,50,166
frame093.jpg,87,520,695,81,93
frame093.jpg,31,581,640,53,153
frame093.jpg,92,601,631,98,160
frame093.jpg,78,678,654,59,129
frame093.jpg,100,714,298,451,378
frame093.jpg,48,875,701,68,80
frame093.jpg,67,1149,674,42,58
frame093.jpg,43,1183,673,50,60
frame094.jpg,68,10,659,69,71
frame094.jpg,100,110,561,192,317
frame094.jpg,99,269,568,131,242
frame094.jpg,35,371,562,70,237
frame094.jpg,78,520,697,81,95
frame094.jpg,27,581,643,51,148
frame094.jpg,98,598,634,102,158
frame094.jpg,100,636,316,544,450
frame094.jpg,87,680,652,51,137
frame094.jpg,54,1149,676,38,55
frame094.jpg,44,1178,675,59,57
frame095.jpg,68,10,659,69,71
frame095.jpg,100,110,561,191,317
frame095.jpg,99,269,568,131,242
frame095.jpg,35,370,562,70,237
frame095.jpg,78,520,697,81,95
frame095.jpg,27,581,643,51,148
frame095.jpg,98,598,634,102,158
frame095.jpg,100,635,316,545,450
frame095.jpg,87,680,652,51,137
frame095.jpg,54,1149,676,38,55
frame095.jpg,44,1178,675,59,57
frame096.jpg,45,9,663,64,71
frame096.jpg,38,96,665,57,69
frame096.jpg,100,110,566,197,313
frame096.jpg,97,274,573,107,235
frame096.jpg,65,361,568,70,229
frame096.jpg,27,383,594,53,156
frame096.jpg,52,508,697,80,95
frame096.jpg,93,588,597,112,196
frame096.jpg,100,594,431,518,486
frame096.jpg,83,670,651,53,142
frame096.jpg,64,1142,675,42,58
frame096.jpg,68,1177,672,55,61
frame097.jpg,57,8,661,65,72
frame097.jpg,29,95,662,63,71
frame097.jpg,100,109,568,197,307
frame097.jpg,98,277,570,104,235
frame097.jpg,53,365,566,71,230
frame097.jpg,70,504,697,88,96
frame097.jpg,91,588,599,110,191
frame097.jpg,100,607,437,590,512
frame097.jpg,91,666,652,57,141
frame097.jpg,58,1142,675,42,58
frame097.jpg,67,1176,673,56,61
frame098.jpg,58,9,661,66,74
frame098.jpg,27,95,666,63,68
frame098.jpg,100,132,564,194,313
frame098.jpg,98,279,572,99,233
frame098.jpg,36,367,570,72,225
frame098.jpg,77,507,697,82,95
frame098.jpg,91,593,636,102,158
frame098.jpg,100,620,408,631,559
frame098.jpg,95,665,651,60,144
frame098.jpg,34,1143,689,44,48
frame099.jpg,74,9,660,67,74
frame099.jpg,27,95,664,66,69
frame099.jpg,100,143,562,187,316
frame099.jpg,97,285,572,101,234
frame099.jpg,41,367,568,72,227
frame099.jpg,79,506,697,84,96
frame099.jpg,89,590,637,104,156
frame099.jpg,100,649,390,607,586
frame099.jpg,94,666,650,59,146
frame099.jpg,61,1139,685,44,50
frame099.jpg,68,1174,677,61,67
frame100.jpg,71,9,661,66,73
frame100.jpg,44,95,668,66,67
frame100.jpg,100,149,571,190,304
frame100.jpg,94,290,571,92,238
frame100.jpg,26,356,574,81,219
frame100.jpg,74,510,698,76,94
frame100.jpg,93,580,589,112,204
frame100.jpg,94,665,651,56,146
frame100.jpg,100,712,373,424,605
frame100.jpg,78,1139,685,43,53
frame100.jpg,71,1172,679,59,63
frame101.jpg,71,10,662,64,72
frame101.jpg,71,96,665,66,71
frame101.jpg,100,157,566,185,312
frame101.jpg,93,296,578,83,233
frame101.jpg,72,510,697,74,96
frame101.jpg,42,577,654,45,132
frame101.jpg,95,581,588,113,208
frame101.jpg,91,666,651,55,145
frame101.jpg,100,731,379,386,596
frame101.jpg,75,1138,683,41,56
frame101.jpg,72,1172,678,58,65
frame102.jpg,70,9,659,66,74
frame102.jpg,50,97,663,64,71
frame102.jpg,100,171,560,173,317
frame102.jpg,95,301,573,83,234
frame102.jpg,35,508,696,73,94
frame102.jpg,81,583,593,110,191
frame102.jpg,90,663,653,58,132
frame102.jpg,98,687,390,502,585
frame102.jpg,79,1140,674,39,60
frame102.jpg,69,1178,673,40,59
frame103.jpg,79,9,657,69,69
frame103.jpg,65,99,661,64,71
frame103.jpg,100,185,559,164,313
frame103.jpg,88,303,572,80,237
frame103.jpg,85,510,697,73,92
frame103.jpg,38,584,690,45,92
frame103.jpg,32,614,686,67,98
frame103.jpg,92,632,433,612,520
frame103.jpg,46,668,689,51,94
frame103.jpg,53,934,720,76,67
frame103.jpg,27,1071,708,43,22
frame103.jpg,78,1141,674,38,59
frame103.jpg,71,1178,673,41,58
frame104.jpg,69,8,662,68,72
frame104.jpg,67,95,670,67,65
frame104.jpg,100,189,562,161,312
frame104.jpg,89,302,574,89,243
frame104.jpg,36,361,574,74,221
frame104.jpg,61,511,694,74,100
frame104.jpg,95,594,639,102,159
frame104.jpg,79,664,654,56,140
frame104.jpg,97,666,438,609,507
frame104.jpg,28,879,716,46,74
frame104.jpg,41,934,723,74,71
frame104.jpg,85,1138,681,41,60
frame104.jpg,67,1173,679,55,66
frame105.jpg,67,11,661,67,71
frame105.jpg,57,99,665,66,72
frame105.jpg,100,197,566,162,304
frame105.jpg,73,301,566,94,257
frame105.jpg,52,357,568,72,227
frame105.jpg,43,386,602,46,139
frame105.jpg,71,513,698,70,93
frame105.jpg,40,576,657,46,128
frame105.jpg,98,586,427,656,514
frame105.jpg,89,587,590,96,202
frame105.jpg,93,664,657,56,135
frame105.jpg,55,865,713,63,78
frame105.jpg,78,936,722,70,70
frame105.jpg,77,1137,678,38,63
frame105.jpg,61,1173,678,55,67
frame106.jpg,79,10,661,67,72
frame106.jpg,59,98,667,67,69
frame106.jpg,100,201,563,163,314
frame106.jpg,63,295,564,98,262
frame106.jpg,87,357,570,73,227
frame106.jpg,58,384,597,49,152
frame106.jpg,60,512,697,73,95
frame106.jpg,95,593,635,100,165
frame106.jpg,100,612,365,575,487
frame106.jpg,85,661,661,59,124
frame106.jpg,42,856,713,77,80
frame106.jpg,31,936,722,68,70
frame106.jpg,81,1138,679,38,62
frame106.jpg,57,1175,677,52,69
frame107.jpg,78,10,661,69,72
frame107.jpg,51,102,666,67,71
frame107.jpg,99,208,562,155,314
frame107.jpg,71,282,563,106,267
frame107.jpg,87,357,571,74,221
frame107.jpg,62,383,594,53,156
frame107.jpg,72,511,696,73,97
frame107.jpg,51,576,663,49,119
frame107.jpg,93,597,315,601,406
frame107.jpg,36,614,649,69,141
frame107.jpg,93,655,658,61,131
frame107.jpg,44,858,712,75,80
frame107.jpg,33,934,719,71,73
frame107.jpg,77,1140,680,35,59
frame107.jpg,50,1180,674,38,57
frame108.jpg,78,10,662,71,70
frame108.jpg,52,101,670,67,66
frame108.jpg,99,225,561,156,307
frame108.jpg,95,356,568,78,226
frame108.jpg,57,383,595,53,150
frame108.jpg,73,510,697,74,95
frame108.jpg,98,540,257,646,454
frame108.jpg,27,554,653,55,132
frame108.jpg,93,594,639,97,157
frame108.jpg,85,661,658,58,132
frame108.jpg,41,857,712,74,81
frame108.jpg,34,932,721,72,70
frame108.jpg,64,1137,681,39,57
frame108.jpg,44,1172,678,55,67
frame109.jpg,62,12,660,69,68
frame109.jpg,42,102,664,65,72
frame109.jpg,99,232,561,147,303
frame109.jpg,97,358,568,79,227
frame109.jpg,57,384,594,54,151
frame109.jpg,70,509,695,76,96
frame109.jpg,41,550,650,58,138
frame109.jpg,89,593,642,97,151
frame109.jpg,30,609,584,71,102
frame109.jpg,100,643,211,534,497
frame109.jpg,88,659,656,60,134
frame109.jpg,38,865,705,60,77
frame109.jpg,29,931,720,72,71
frame109.jpg,44,1139,683,37,54
frame109.jpg,34,1174,676,54,69
frame110.jpg,57,12,660,71,68
frame110.jpg,32,101,665,65,70
frame110.jpg,100,233,562,150,301
frame110.jpg,96,356,571,78,222
frame110.jpg,64,387,593,50,156
frame110.jpg,70,510,696,76,95
frame110.jpg,45,550,651,58,137
frame110.jpg,89,592,642,96,151
frame110.jpg,27,609,585,69,101
frame110.jpg,89,659,658,59,129
frame110.jpg,99,809,198,376,533
frame110.jpg,38,864,706,59,75
frame110.jpg,33,1004,621,92,110
frame110.jpg,52,1138,683,38,56
frame110.jpg,40,1172,677,56,69
frame111.jpg,57,12,660,71,68
frame111.jpg,32,101,665,65,70
frame111.jpg,100,233,562,150,301
frame111.jpg,96,357,571,78,222
frame111.jpg,64,387,593,51,156
frame111.jpg,69,510,696,76,95
frame111.jpg,45,550,651,58,137
frame111.jpg,89,592,642,95,151
frame111.jpg,27,609,585,69,101
frame111.jpg,89,659,658,59,129
frame111.jpg,99,809,198,377,532
frame111.jpg,38,864,706,59,75
frame111.jpg,34,1004,621,92,110
frame111.jpg,52,1138,683,38,56
frame111.jpg,40,1172,677,56,69
frame112.jpg,58,13,662,68,67
frame112.jpg,45,100,668,67,68
frame112.jpg,100,237,563,160,301
frame112.jpg,92,358,571,76,223
frame112.jpg,54,388,595,51,159
frame112.jpg,73,508,697,78,97
frame112.jpg,93,590,642,99,154
frame112.jpg,73,661,661,56,126
frame112.jpg,26,849,712,63,79
frame112.jpg,100,859,279,366,398
frame112.jpg,44,1138,682,39,57
frame112.jpg,38,1170,678,56,69
frame113.jpg,62,13,664,68,67
frame113.jpg,26,100,670,68,67
frame113.jpg,100,236,564,168,297
frame113.jpg,63,356,579,77,213
frame113.jpg,55,390,642,48,153
frame113.jpg,68,502,704,82,92
frame113.jpg,28,553,655,56,131
frame113.jpg,94,591,642,98,158
frame113.jpg,66,660,666,58,126
frame113.jpg,100,860,261,379,443
frame113.jpg,43,1138,680,37,60
frame113.jpg,30,1169,679,55,69
frame114.jpg,45,11,662,70,69
frame114.jpg,37,100,666,64,71
frame114.jpg,100,238,569,174,286
frame114.jpg,42,359,581,78,204
frame114.jpg,34,388,609,53,134
frame114.jpg,48,509,695,73,96
frame114.jpg,68,547,658,60,129
frame114.jpg,31,574,657,55,130
frame114.jpg,79,593,645,84,151
frame114.jpg,31,603,589,69,92
frame114.jpg,96,655,660,59,128
frame114.jpg,97,759,350,467,374
frame114.jpg,32,850,707,59,75
frame115.jpg,50,11,662,71,69
frame115.jpg,36,102,667,63,70
frame115.jpg,100,244,570,168,288
frame115.jpg,40,364,578,72,207
frame115.jpg,54,392,611,51,128
frame115.jpg,57,509,695,74,96
frame115.jpg,52,547,659,61,125
frame115.jpg,78,590,648,91,148
frame115.jpg,39,603,590,70,90
frame115.jpg,92,656,661,59,125
frame115.jpg,100,754,351,453,504
frame115.jpg,46,1142,683,34,53
frame115.jpg,50,1169,680,52,75
frame116.jpg,76,19,657,68,67
frame116.jpg,34,104,663,61,71
frame116.jpg,100,244,568,171,288
frame116.jpg,45,364,578,70,209
frame116.jpg,30,391,605,47,136
frame116.jpg,38,511,694,73,95
frame116.jpg,54,544,658,61,128
frame116.jpg,87,590,646,98,147
frame116.jpg,33,603,587,68,93
frame116.jpg,85,654,659,59,127
frame116.jpg,100,757,437,460,479
frame116.jpg,69,1137,682,38,57
frame116.jpg,47,1169,680,53,68
frame117.jpg,58,16,662,68,67
frame117.jpg,34,105,667,61,70
frame117.jpg,100,245,569,175,291
frame117.jpg,65,505,695,77,98
frame117.jpg,86,586,647,105,149
frame117.jpg,66,657,661,53,126
frame117.jpg,100,732,466,536,489
frame117.jpg,52,843,711,68,80
frame117.jpg,53,915,726,79,66
frame117.jpg,69,1137,683,36,58
frame117.jpg,49,1171,685,38,54
frame118.jpg,65,18,662,65,66
frame118.jpg,34,104,667,62,70
frame118.jpg,99,246,572,168,286
frame118.jpg,49,368,577,70,211
frame118.jpg,55,393,599,49,145
frame118.jpg,73,505,697,73,94
frame118.jpg,38,550,659,55,124
frame118.jpg,88,584,641,102,156
frame118.jpg,80,653,657,57,133
frame118.jpg,100,786,437,546,532
frame118.jpg,63,845,705,66,78
frame118.jpg,35,918,723,67,68
frame118.jpg,43,1140,691,37,45
frame119.jpg,62,16,664,66,65
frame119.jpg,37,100,669,65,68
frame119.jpg,100,249,571,167,288
frame119.jpg,66,393,602,51,138
frame119.jpg,72,507,695,68,94
frame119.jpg,48,548,659,56,126
frame119.jpg,87,584,642,97,154
frame119.jpg,87,651,656,59,134
frame119.jpg,100,804,423,597,556
frame119.jpg,62,844,705,69,80
frame120.jpg,65,17,662,65,67
frame120.jpg,43,97,666,66,70
frame120.jpg,100,248,569,165,290
frame120.jpg,64,404,595,48,150
frame120.jpg,46,507,694,64,94
frame120.jpg,67,546,657,56,129
frame120.jpg,69,587,644,87,152
frame120.jpg,87,646,659,57,129
frame120.jpg,29,843,700,68,87
frame120.jpg,100,856,411,323,547
frame120.jpg,63,1136,687,37,51
frame120.jpg,46,1171,685,39,54
frame121.jpg,65,17,662,65,68
frame121.jpg,43,97,666,66,70
frame121.jpg,100,248,569,165,290
frame121.jpg,64,404,595,48,150
frame121.jpg,46,507,694,65,94
frame121.jpg,67,547,657,56,129
frame121.jpg,69,587,644,87,152
frame121.jpg,87,646,659,57,129
frame121.jpg,28,843,700,68,87
frame121.jpg,100,857,411,323,547
frame121.jpg,63,1136,687,37,51
frame121.jpg,46,1171,685,39,54
frame122.jpg,60,19,660,63,68
frame122.jpg,32,98,669,66,66
frame122.jpg,100,253,565,167,296
frame122.jpg,63,384,578,76,210
frame122.jpg,58,406,597,49,145
frame122.jpg,33,506,691,66,98
frame122.jpg,58,545,656,56,129
frame122.jpg,76,584,639,93,158
frame122.jpg,87,644,657,58,130
frame122.jpg,100,754,431,472,554
frame122.jpg,57,841,708,62,68
frame122.jpg,31,1118,691,39,42
frame122.jpg,68,1137,683,38,55
frame122.jpg,47,1170,685,38,53
frame123.jpg,64,18,660,63,66
frame123.jpg,34,96,662,68,72
frame123.jpg,100,252,571,173,285
frame123.jpg,70,407,596,50,145
frame123.jpg,67,504,692,68,95
frame123.jpg,67,544,657,55,128
frame123.jpg,78,583,642,93,149
frame123.jpg,34,588,590,71,88
frame123.jpg,71,644,657,57,128
frame123.jpg,97,746,462,522,465
frame123.jpg,60,841,706,62,77
frame123.jpg,47,1070,709,43,25
frame123.jpg,35,1115,694,38,39
frame123.jpg,66,1139,685,40,51
frame123.jpg,48,1166,680,50,70
frame124.jpg,55,16,660,64,68
frame124.jpg,100,248,570,179,287
frame124.jpg,35,378,583,81,205
frame124.jpg,75,405,601,51,139
frame124.jpg,72,500,691,70,96
frame124.jpg,67,545,658,51,126
frame124.jpg,89,583,645,96,147
frame124.jpg,69,644,660,57,125
frame124.jpg,89,709,481,568,284
frame124.jpg,73,839,705,66,78
frame124.jpg,39,1114,696,38,37
frame124.jpg,25,1121,677,39,51
frame124.jpg,50,1140,687,40,48
frame124.jpg,39,1164,679,53,71
frame125.jpg,39,11,663,64,69
frame125.jpg,100,248,567,181,292
frame125.jpg,91,404,601,53,142
frame125.jpg,81,493,693,79,96
frame125.jpg,39,548,661,47,120
frame125.jpg,89,575,642,92,154
frame125.jpg,89,641,660,60,126
frame125.jpg,99,712,446,510,476
frame125.jpg,31,829,712,72,79
frame125.jpg,47,1120,677,40,53
frame125.jpg,39,1143,687,44,48
frame126.jpg,42,225,575,87,235
frame126.jpg,99,252,564,173,297
frame126.jpg,47,369,581,85,210
frame126.jpg,88,405,604,52,138
frame126.jpg,64,494,684,72,105
frame126.jpg,40,506,658,103,137
frame126.jpg,84,577,643,89,154
frame126.jpg,37,583,591,66,88
frame126.jpg,88,638,662,65,125
frame126.jpg,100,724,391,471,432
frame127.jpg,43,222,573,85,239
frame127.jpg,99,257,563,173,298
frame127.jpg,46,358,577,91,221
frame127.jpg,71,401,602,54,144
frame127.jpg,72,487,691,77,98
frame127.jpg,88,567,645,97,147
frame127.jpg,28,580,587,64,91
frame127.jpg,77,628,657,61,130
frame127.jpg,100,734,373,442,336
frame127.jpg,63,830,707,64,75
frame127.jpg,60,902,720,74,67
frame128.jpg,26,7,656,45,80
frame128.jpg,84,223,567,87,246
frame128.jpg,99,262,560,173,299
frame128.jpg,31,353,572,96,227
frame128.jpg,59,405,602,51,141
frame128.jpg,69,485,689,77,99
frame128.jpg,90,565,646,102,145
frame128.jpg,28,579,586,67,95
frame128.jpg,84,628,657,60,129
frame128.jpg,100,651,363,528,344
frame128.jpg,67,828,707,65,75
frame128.jpg,55,899,718,77,68
frame129.jpg,93,219,567,90,243
frame129.jpg,98,265,549,177,302
frame129.jpg,45,351,569,100,232
frame129.jpg,50,402,601,53,142
frame129.jpg,59,485,690,77,99
frame129.jpg,90,565,644,102,148
frame129.jpg,32,577,586,68,95
frame129.jpg,78,630,657,57,132
frame129.jpg,99,760,243,431,484
frame129.jpg,43,832,706,54,75
frame129.jpg,55,1097,624,80,114
frame130.jpg,92,220,568,88,244
frame130.jpg,97,265,549,177,302
frame130.jpg,47,351,568,101,234
frame130.jpg,49,404,603,52,139
frame130.jpg,69,485,691,78,98
frame130.jpg,89,565,645,96,150
frame130.jpg,32,577,588,66,93
frame130.jpg,81,630,656,55,134
frame130.jpg,56,830,707,56,75
frame130.jpg,99,845,263,333,440
frame130.jpg,47,898,723,71,65
frame130.jpg,73,1085,645,91,93
frame131.jpg,90,220,572,85,236
frame131.jpg,98,265,548,179,301
frame131.jpg,29,356,566,100,234
frame131.jpg,53,405,598,53,147
frame131.jpg,54,484,691,77,97
frame131.jpg,26,525,592,114,192
frame131.jpg,83,563,647,103,146
frame131.jpg,33,575,588,69,93
frame131.jpg,67,628,659,56,127
frame131.jpg,30,831,706,54,75
frame131.jpg,26,893,723,77,64
frame131.jpg,99,914,277,317,417
frame131.jpg,71,1056,646,81,97
frame131.jpg,26,1133,679,71,64
frame132.jpg,93,218,565,92,243
frame132.jpg,99,265,542,178,313
frame132.jpg,54,404,604,54,135
frame132.jpg,38,486,689,75,95
frame132.jpg,71,551,594,96,190
frame132.jpg,27,575,587,68,96
frame132.jpg,84,627,659,58,124
frame132.jpg,100,916,341,322,372
frame133.jpg,31,7,654,48,80
frame133.jpg,94,216,568,91,240
frame133.jpg,99,266,543,175,313
frame133.jpg,59,405,611,54,122
frame133.jpg,63,481,696,82,87
frame133.jpg,42,523,593,119,185
frame133.jpg,81,562,646,101,143
frame133.jpg,28,573,588,67,96
frame133.jpg,89,623,656,61,127
frame133.jpg,27,815,705,59,71
frame133.jpg,100,915,390,299,339
frame134.jpg,46,5,656,54,76
frame134.jpg,96,215,566,92,243
frame134.jpg,99,268,543,172,313
frame134.jpg,61,406,609,52,125
frame134.jpg,70,482,696,83,88
frame134.jpg,35,523,593,117,184
frame134.jpg,86,560,647,99,142
frame134.jpg,31,571,589,68,94
frame134.jpg,88,622,656,61,125
frame134.jpg,96,909,416,289,308
frame135.jpg,59,5,656,52,72
frame135.jpg,38,70,660,70,69
frame135.jpg,38,130,659,63,72
frame135.jpg,96,212,569,92,237
frame135.jpg,100,269,545,172,308
frame135.jpg,75,408,603,52,135
frame135.jpg,40,473,699,79,83
frame135.jpg,30,525,595,112,184
frame135.jpg,89,559,648,99,142
frame135.jpg,31,573,589,63,94
frame135.jpg,79,623,658,59,120
frame135.jpg,100,843,438,355,390
frame136.jpg,50,4,655,53,73
frame136.jpg,36,80,653,76,77
frame136.jpg,96,211,568,91,236
frame136.jpg,100,266,548,174,304
frame136.jpg,29,347,564,99,239
frame136.jpg,66,409,606,51,130
frame136.jpg,60,471,698,78,82
frame136.jpg,37,516,652,56,130
frame136.jpg,80,560,648,95,141
frame136.jpg,36,571,588,62,94
frame136.jpg,92,623,654,60,127
frame136.jpg,27,812,703,62,76
frame136.jpg,100,819,481,345,342
frame136.jpg,29,873,717,84,70
frame136.jpg,34,1113,678,36,50
frame137.jpg,48,3,651,55,77
frame137.jpg,32,71,659,68,67
frame137.jpg,34,125,655,67,74
frame137.jpg,97,207,562,93,240
frame137.jpg,100,268,544,173,310
frame137.jpg,48,411,609,49,124
frame137.jpg,68,474,695,72,83
frame137.jpg,33,526,601,105,179
frame137.jpg,74,558,644,98,142
frame137.jpg,94,620,647,65,134
frame137.jpg,100,798,506,381,373
frame137.jpg,56,812,701,60,77
frame137.jpg,38,1111,675,39,52
frame138.jpg,60,3,655,53,70
frame138.jpg,47,69,659,69,68
frame138.jpg,41,128,659,63,71
frame138.jpg,97,208,565,95,239
frame138.jpg,99,265,548,177,305
frame138.jpg,62,468,697,77,85
frame138.jpg,80,555,643,100,145
frame138.jpg,84,621,647,60,140
frame138.jpg,100,797,483,436,475
frame138.jpg,49,811,704,61,74
frame138.jpg,26,878,717,75,69
frame139.jpg,46,2,657,53,70
frame139.jpg,32,67,662,66,66
frame139.jpg,97,205,566,100,246
frame139.jpg,99,267,553,179,298
frame139.jpg,28,341,570,112,232
frame139.jpg,57,468,698,70,87
frame139.jpg,39,518,647,51,142
frame139.jpg,72,527,600,104,189
frame139.jpg,92,618,651,62,134
frame139.jpg,67,810,705,61,74
frame139.jpg,100,828,438,486,544
frame139.jpg,50,879,718,67,69
frame140.jpg,46,2,657,53,70
frame140.jpg,32,67,662,66,66
frame140.jpg,97,205,566,100,245
frame140.jpg,99,267,553,179,298
frame140.jpg,29,340,570,112,232
frame140.jpg,57,468,698,70,86
frame140.jpg,39,517,647,51,142
frame140.jpg,72,527,600,104,189
frame140.jpg,92,618,651,62,133
frame140.jpg,67,810,705,61,74
frame140.jpg,100,828,438,486,543
frame140.jpg,50,879,718,67,69
frame141.jpg,37,1,652,53,76
frame141.jpg,36,125,656,66,69
frame141.jpg,98,201,567,103,237
frame141.jpg,99,269,551,178,300
frame141.jpg,30,467,698,70,79
frame141.jpg,29,513,651,56,130
frame141.jpg,73,523,597,102,187
frame141.jpg,61,558,644,98,139
frame141.jpg,93,617,641,65,143
frame141.jpg,59,809,701,59,73
frame141.jpg,100,884,435,402,538
frame141.jpg,76,1134,673,61,84
frame142.jpg,31,59,661,74,66
frame142.jpg,41,120,658,68,68
frame142.jpg,98,201,566,102,250
frame142.jpg,98,278,547,162,306
frame142.jpg,27,408,584,47,150
frame142.jpg,63,462,697,69,83
frame142.jpg,39,521,649,50,136
frame142.jpg,79,524,590,97,200
frame142.jpg,42,560,646,96,138
frame142.jpg,94,615,643,64,143
frame142.jpg,71,803,702,63,75
frame142.jpg,100,838,441,344,547
frame142.jpg,33,868,712,65,61
frame142.jpg,42,1106,676,33,51
frame142.jpg,50,1134,675,60,75
frame142.jpg,27,1138,676,38,49
frame143.jpg,50,0,658,50,68
frame143.jpg,38,56,665,73,64
frame143.jpg,46,104,664,75,69
frame143.jpg,98,200,569,102,254
frame143.jpg,99,278,547,162,307
frame143.jpg,34,409,610,49,123
frame143.jpg,86,458,698,72,83
frame143.jpg,88,522,598,103,192
frame143.jpg,34,523,657,46,124
frame143.jpg,33,554,650,98,135
frame143.jpg,85,610,652,59,131
frame143.jpg,85,803,704,61,75
frame143.jpg,100,810,458,396,520
frame143.jpg,74,874,718,70,67
frame143.jpg,46,1103,676,37,55
frame143.jpg,40,1138,675,38,51
frame144.jpg,57,55,656,75,70
frame144.jpg,61,101,659,78,69
frame144.jpg,98,195,572,106,247
frame144.jpg,98,276,548,166,302
frame144.jpg,93,452,695,76,85
frame144.jpg,91,519,596,95,192
frame144.jpg,31,555,650,101,132
frame144.jpg,89,605,650,60,129
frame144.jpg,33,676,674,29,50
frame144.jpg,25,758,464,460,217
frame144.jpg,91,766,442,424,507
frame144.jpg,90,801,702,60,75
frame144.jpg,59,870,716,69,68
frame144.jpg,76,1101,672,37,58
frame144.jpg,46,1136,673,37,54
frame145.jpg,51,53,656,73,68
frame145.jpg,55,102,660,77,65
frame145.jpg,98,191,570,113,238
frame145.jpg,99,277,546,166,304
frame145.jpg,27,406,580,49,154
frame145.jpg,86,449,694,77,85
frame145.jpg,96,520,597,93,191
frame145.jpg,93,606,648,62,129
frame145.jpg,29,674,673,28,49
frame145.jpg,93,764,451,461,348
frame145.jpg,89,798,702,61,76
frame145.jpg,49,862,707,76,76
frame145.jpg,76,1101,672,39,59
frame145.jpg,42,1136,672,37,54
frame146.jpg,49,48,657,76,66
frame146.jpg,52,101,658,76,65
frame146.jpg,99,186,570,114,239
frame146.jpg,99,280,542,164,311
frame146.jpg,93,446,692,79,88
frame146.jpg,96,522,601,90,186
frame146.jpg,95,603,647,65,129
frame146.jpg,28,675,674,28,46
frame146.jpg,99,782,404,404,412
frame146.jpg,82,797,702,64,76
frame146.jpg,64,1099,672,40,58
frame146.jpg,30,1134,672,38,53
frame147.jpg,45,45,656,72,70
frame147.jpg,56,99,659,76,64
frame147.jpg,99,183,571,117,234
frame147.jpg,99,281,544,162,304
frame147.jpg,83,446,694,77,84
frame147.jpg,92,514,598,96,188
frame147.jpg,94,604,647,62,127
frame147.jpg,100,759,386,456,342
frame147.jpg,74,791,702,67,75
frame147.jpg,28,864,710,81,70
frame147.jpg,40,1098,673,41,56
frame148.jpg,68,44,656,69,68
frame148.jpg,28,65,650,122,124
frame148.jpg,61,100,658,78,62
frame148.jpg,98,187,566,110,232
frame148.jpg,100,292,537,170,309
frame148.jpg,89,443,688,82,91
frame148.jpg,98,519,593,90,192
frame148.jpg,85,603,649,60,121
frame148.jpg,100,756,382,463,300
frame148.jpg,81,792,698,64,76
frame148.jpg,63,861,710,83,69
frame148.jpg,60,1098,672,39,54
frame149.jpg,54,43,656,68,68
frame149.jpg,35,63,649,121,127
frame149.jpg,53,97,658,79,64
frame149.jpg,29,115,638,98,151
frame149.jpg,98,184,569,112,229
frame149.jpg,100,280,540,164,307
frame149.jpg,27,399,640,48,80
frame149.jpg,74,435,690,81,90
frame149.jpg,98,515,586,89,201
frame149.jpg,93,592,645,60,132
frame149.jpg,76,791,699,59,77
frame149.jpg,100,796,316,393,398
frame149.jpg,55,859,709,82,70
frame149.jpg,53,1099,673,40,51
frame150.jpg,61,27,656,78,71
frame150.jpg,37,67,651,121,125
frame150.jpg,59,94,659,79,64
frame150.jpg,98,179,567,109,236
frame150.jpg,100,280,534,165,318
frame150.jpg,85,435,692,78,86
frame150.jpg,99,512,590,90,198
frame150.jpg,96,591,645,61,133
frame150.jpg,77,789,700,60,76
frame150.jpg,36,855,708,85,73
frame150.jpg,100,900,273,290,414
frame151.jpg,55,30,644,74,76
frame151.jpg,36,73,649,115,126
frame151.jpg,64,92,655,81,68
frame151.jpg,98,178,560,111,237
frame151.jpg,99,279,532,168,322
frame151.jpg,88,431,686,85,90
frame151.jpg,99,517,591,88,194
frame151.jpg,90,590,644,58,131
frame151.jpg,72,777,696,58,78
frame151.jpg,55,853,709,86,69
frame151.jpg,99,948,281,253,397
frame152.jpg,70,31,640,72,78
frame152.jpg,70,93,646,74,72
frame152.jpg,97,176,548,112,247
frame152.jpg,100,282,528,163,326
frame152.jpg,82,422,683,92,94
frame152.jpg,99,517,588,89,191
frame152.jpg,86,590,639,56,128
frame152.jpg,49,777,692,62,79
frame152.jpg,32,852,705,82,67
frame152.jpg,100,951,373,273,304
frame153.jpg,73,32,644,65,74
frame153.jpg,66,89,646,79,74
frame153.jpg,96,172,553,116,237
frame153.jpg,100,270,527,178,329
frame153.jpg,80,421,684,90,93
frame153.jpg,98,510,589,86,190
frame153.jpg,87,583,638,62,140
frame153.jpg,51,774,691,61,81
frame153.jpg,99,975,405,282,289
frame153.jpg,49,1093,663,72,59
frame154.jpg,67,24,642,68,76
frame154.jpg,73,78,644,86,78
frame154.jpg,89,171,553,113,237
frame154.jpg,100,262,528,191,328
frame154.jpg,83,417,684,93,94
frame154.jpg,98,503,578,91,205
frame154.jpg,89,580,640,66,137
frame154.jpg,49,772,693,65,79
frame154.jpg,99,950,430,265,258
frame154.jpg,29,1097,673,45,48
frame155.jpg,48,23,647,62,68
frame155.jpg,57,74,654,84,69
frame155.jpg,97,140,558,133,227
frame155.jpg,100,257,527,194,323
frame155.jpg,80,417,685,88,91
frame155.jpg,98,500,580,95,202
frame155.jpg,83,579,638,64,141
frame155.jpg,54,769,691,65,82
frame155.jpg,82,934,458,259,265
frame156.jpg,38,16,641,67,72
frame156.jpg,29,46,634,129,128
frame156.jpg,97,138,551,131,235
frame156.jpg,100,257,529,193,315
frame156.jpg,77,417,677,86,93
frame156.jpg,95,504,578,87,200
frame156.jpg,93,581,637,59,131
frame156.jpg,34,768,690,67,82
frame156.jpg,100,907,473,309,326
frame157.jpg,63,15,636,69,78
frame157.jpg,33,52,635,123,128
frame157.jpg,34,74,640,87,77
frame157.jpg,97,138,552,126,234
frame157.jpg,100,255,527,198,321
frame157.jpg,81,408,678,91,88
frame157.jpg,97,502,577,91,199
frame157.jpg,94,580,635,59,133
frame157.jpg,100,888,489,328,369
frame158.jpg,35,9,643,69,100
frame158.jpg,32,50,635,122,128
frame158.jpg,25,62,646,84,71
frame158.jpg,98,130,553,133,232
frame158.jpg,100,253,533,199,320
frame158.jpg,73,408,680,91,88
frame158.jpg,98,497,572,91,210
frame158.jpg,91,576,636,59,132
frame158.jpg,51,763,692,68,81
frame158.jpg,100,902,484,324,408
frame159.jpg,35,9,643,69,100
frame159.jpg,32,50,635,122,128
frame159.jpg,25,62,646,84,71
frame159.jpg,98,129,553,133,232
frame159.jpg,100,253,533,199,320
frame159.jpg,73,408,680,91,88
frame159.jpg,98,497,572,91,210
frame159.jpg,91,576,636,59,132
frame159.jpg,51,763,692,69,81
frame159.jpg,100,901,484,325,408
frame160.jpg,40,7,632,50,90
frame160.jpg,57,27,649,138,124
frame160.jpg,98,121,551,114,237
frame160.jpg,100,248,534,205,322
frame160.jpg,48,391,682,94,96
frame160.jpg,99,490,578,94,202
frame160.jpg,93,571,639,58,126
frame160.jpg,36,756,693,67,79
frame160.jpg,100,963,457,346,438
frame161.jpg,45,2,639,55,80
frame161.jpg,48,25,652,135,124
frame161.jpg,37,49,654,87,71
frame161.jpg,99,107,547,129,249
frame161.jpg,100,248,534,200,328
frame161.jpg,82,391,682,91,97
frame161.jpg,97,492,577,83,206
frame161.jpg,76,568,640,57,127
frame161.jpg,70,752,693,70,81
frame161.jpg,35,832,706,75,70
frame161.jpg,100,974,461,296,451
frame162.jpg,30,1,635,44,122
frame162.jpg,51,14,652,143,123
frame162.jpg,27,42,643,85,75
frame162.jpg,98,108,542,123,256
frame162.jpg,100,242,540,209,310
frame162.jpg,54,385,686,93,90
frame162.jpg,97,485,581,88,199
frame162.jpg,73,567,638,58,128
frame162.jpg,77,752,691,64,81
frame162.jpg,59,828,704,76,71
frame162.jpg,100,984,457,205,444
frame163.jpg,28,2,624,44,143
frame163.jpg,50,33,622,127,147
frame163.jpg,96,104,541,125,236
frame163.jpg,100,242,535,191,308
frame163.jpg,80,382,534,81,227
frame163.jpg,58,385,675,85,93
frame163.jpg,53,447,547,80,216
frame163.jpg,91,488,591,90,182
frame163.jpg,90,553,635,65,125
frame163.jpg,89,943,450,258,455
frame164.jpg,46,49,587,131,185
frame164.jpg,92,102,540,119,238
frame164.jpg,31,227,543,78,200
frame164.jpg,99,241,531,185,313
frame164.jpg,81,377,535,84,226
frame164.jpg,46,381,675,86,94
frame164.jpg,75,455,549,77,214
frame164.jpg,89,489,591,89,183
frame164.jpg,85,554,636,61,124
frame164.jpg,97,980,440,289,478
frame165.jpg,88,64,540,131,237
frame165.jpg,46,220,539,77,206
frame165.jpg,99,243,532,181,312
frame165.jpg,32,247,543,63,141
frame165.jpg,77,372,533,83,228
frame165.jpg,70,377,675,85,94
frame165.jpg,93,460,575,85,202
frame165.jpg,89,546,635,64,131
frame165.jpg,37,727,685,231,93
frame165.jpg,66,736,684,67,79
frame165.jpg,49,810,699,92,73
frame165.jpg,96,828,460,475,436
frame166.jpg,98,41,542,153,257
frame166.jpg,63,219,545,81,192
frame166.jpg,99,242,534,175,311
frame166.jpg,76,367,538,83,214
frame166.jpg,46,371,685,89,92
frame166.jpg,98,455,576,87,207
frame166.jpg,88,545,634,60,135
frame166.jpg,50,733,691,65,84
frame166.jpg,99,828,430,474,351
frame167.jpg,96,43,543,144,253
frame167.jpg,42,219,541,81,204
frame167.jpg,99,241,530,180,311
frame167.jpg,48,358,674,86,98
frame167.jpg,71,364,535,86,223
frame167.jpg,99,455,565,83,218
frame167.jpg,97,543,626,59,150
frame167.jpg,85,732,684,62,79
frame167.jpg,41,808,702,64,71
frame167.jpg,99,851,392,425,309
frame167.jpg,33,1059,660,62,56
frame167.jpg,26,1096,655,59,70
frame168.jpg,95,43,531,144,249
frame168.jpg,45,219,537,80,212
frame168.jpg,99,242,526,185,317
frame168.jpg,60,357,674,88,98
frame168.jpg,53,359,531,89,232
frame168.jpg,98,446,568,87,213
frame168.jpg,96,540,629,61,144
frame168.jpg,77,731,684,64,80
frame168.jpg,31,807,701,70,70
frame168.jpg,100,857,365,406,331
frame168.jpg,27,1069,661,42,55
frame169.jpg,99,25,541,149,257
frame169.jpg,62,216,539,75,198
frame169.jpg,99,240,525,181,324
frame169.jpg,30,356,674,82,100
frame169.jpg,68,359,534,86,226
frame169.jpg,98,447,569,82,215
frame169.jpg,88,533,634,64,133
frame169.jpg,73,725,692,73,80
frame169.jpg,51,805,702,76,71
frame169.jpg,100,867,327,388,320
frame169.jpg,45,1067,662,43,57
frame169.jpg,38,1099,658,58,69
frame170.jpg,99,15,547,152,249
frame170.jpg,99,235,521,193,333
frame170.jpg,39,350,673,82,104
frame170.jpg,37,354,536,91,228
frame170.jpg,99,441,562,83,224
frame170.jpg,88,530,636,62,131
frame170.jpg,83,722,691,74,81
frame170.jpg,46,805,703,72,72
frame170.jpg,100,842,290,400,369
frame170.jpg,59,1068,663,42,56
frame170.jpg,40,1099,664,40,54
frame171.jpg,43,3,632,81,168
frame171.jpg,99,21,543,138,256
frame171.jpg,100,221,522,209,334
frame171.jpg,71,344,674,84,100
frame171.jpg,98,431,561,87,223
frame171.jpg,83,516,635,66,133
frame171.jpg,71,714,691,70,82
frame171.jpg,42,800,705,81,71
frame171.jpg,100,890,240,337,410
frame171.jpg,38,1068,662,40,56
frame172.jpg,98,14,526,145,261
frame172.jpg,32,195,556,114,260
frame172.jpg,100,211,518,214,328
frame172.jpg,83,340,674,85,93
frame172.jpg,97,424,561,93,223
frame172.jpg,96,517,628,64,143
frame172.jpg,80,719,684,64,78
frame172.jpg,78,797,701,78,70
frame172.jpg,97,952,237,270,413
frame172.jpg,32,1067,661,40,55
frame173.jpg,99,15,515,138,276
frame173.jpg,100,201,515,220,327
frame173.jpg,28,208,541,62,135
frame173.jpg,76,338,675,83,91
frame173.jpg,96,419,541,93,234
frame173.jpg,95,515,626,64,141
frame173.jpg,70,717,684,62,78
frame173.jpg,72,794,701,76,70
frame173.jpg,99,1010,282,244,379
frame173.jpg,46,1069,655,36,53
frame174.jpg,90,1,532,117,249
frame174.jpg,100,201,524,214,334
frame174.jpg,36,283,529,123,231
frame174.jpg,44,333,684,86,94
frame174.jpg,99,413,562,96,227
frame174.jpg,88,512,630,59,141
frame174.jpg,66,714,690,70,85
frame174.jpg,74,787,704,83,74
frame174.jpg,100,1021,288,264,381
frame174.jpg,60,1066,663,41,54
frame175.jpg,95,10,542,100,268
frame175.jpg,37,180,544,67,139
frame175.jpg,99,195,523,228,334
frame175.jpg,45,279,534,125,223
frame175.jpg,68,315,683,89,97
frame175.jpg,99,407,562,97,228
frame175.jpg,87,506,633,62,138
frame175.jpg,70,696,689,68,88
frame175.jpg,41,776,707,91,72
frame175.jpg,100,1016,346,259,334
frame175.jpg,34,1064,668,43,48
frame176.jpg,95,11,540,89,267
frame176.jpg,100,168,517,231,341
frame176.jpg,60,178,539,62,151
frame176.jpg,41,310,674,84,98
frame176.jpg,98,403,568,99,216
frame176.jpg,97,500,628,62,144
frame176.jpg,35,693,687,74,89
frame176.jpg,96,953,345,256,281
frame177.jpg,95,10,540,90,267
frame177.jpg,100,168,517,232,341
frame177.jpg,61,178,539,62,151
frame177.jpg,41,310,674,84,98
frame177.jpg,98,403,568,99,216
frame177.jpg,97,500,628,62,144
frame177.jpg,36,693,687,74,89
frame177.jpg,97,953,345,256,281
frame178.jpg,94,10,532,86,249
frame178.jpg,100,162,512,239,352
frame178.jpg,76,178,537,60,154
frame178.jpg,32,307,674,84,98
frame178.jpg,96,400,572,99,210
frame178.jpg,95,499,631,62,140
frame178.jpg,69,693,689,73,86
frame178.jpg,26,774,705,91,76
frame178.jpg,99,921,383,298,276
frame178.jpg,38,1056,662,60,54
frame179.jpg,95,10,528,78,251
frame179.jpg,68,153,535,88,158
frame179.jpg,100,159,511,237,351
frame179.jpg,31,305,673,86,97
frame179.jpg,94,364,539,116,239
frame179.jpg,96,493,624,64,149
frame179.jpg,52,690,688,70,87
frame179.jpg,33,770,702,68,74
frame179.jpg,99,923,399,297,392
frame180.jpg,91,6,513,74,271
frame180.jpg,82,148,531,90,168
frame180.jpg,100,149,511,247,346
frame180.jpg,30,296,671,92,97
frame180.jpg,97,363,536,116,242
frame180.jpg,45,413,594,99,180
frame180.jpg,96,492,614,64,164
frame180.jpg,77,689,684,71,81
frame180.jpg,53,769,701,73,72
frame180.jpg,98,920,455,305,395
frame181.jpg,95,3,532,79,283
frame181.jpg,84,129,543,96,182
frame181.jpg,100,142,526,241,346
frame181.jpg,41,283,683,80,101
frame181.jpg,99,361,570,103,219
frame181.jpg,94,445,636,96,148
frame181.jpg,38,656,692,252,95
frame181.jpg,47,675,695,70,83
frame181.jpg,100,966,428,324,516
frame182.jpg,94,3,532,79,283
frame182.jpg,84,129,543,96,181
frame182.jpg,100,142,526,242,346
frame182.jpg,41,283,683,80,101
frame182.jpg,99,362,570,103,220
frame182.jpg,94,445,636,96,148
frame182.jpg,38,656,692,252,95
frame182.jpg,47,675,695,70,83
frame182.jpg,100,966,428,324,516
frame183.jpg,65,4,525,67,305
frame183.jpg,85,113,543,90,182
frame183.jpg,100,134,539,238,320
frame183.jpg,45,278,684,77,101
frame183.jpg,100,346,563,105,233
frame183.jpg,97,444,632,88,155
frame183.jpg,59,659,695,62,84
frame183.jpg,100,990,441,338,480
frame184.jpg,34,2,468,63,363
frame184.jpg,83,110,544,91,184
frame184.jpg,100,133,531,235,331
frame184.jpg,54,273,678,78,106
frame184.jpg,100,342,560,106,236
frame184.jpg,96,443,633,88,151
frame184.jpg,59,656,696,68,83
frame184.jpg,28,687,697,59,84
frame184.jpg,100,993,451,210,481
frame185.jpg,50,1,476,65,350
frame185.jpg,47,108,543,92,198
frame185.jpg,100,127,526,239,338
frame185.jpg,34,272,678,71,105
frame185.jpg,100,337,548,110,248
frame185.jpg,95,437,624,91,154
frame185.jpg,42,641,691,266,97
frame185.jpg,45,655,693,64,85
frame185.jpg,100,977,462,228,450
frame186.jpg,29,89,536,102,211
frame186.jpg,100,135,523,225,351
frame186.jpg,36,266,677,71,109
frame186.jpg,99,331,542,106,262
frame186.jpg,97,431,624,93,155
frame186.jpg,75,646,693,254,95
frame186.jpg,80,646,692,76,88
frame186.jpg,100,922,434,276,506
frame187.jpg,32,90,538,91,210
frame187.jpg,100,122,534,245,357
frame187.jpg,99,327,539,102,274
frame187.jpg,96,425,633,86,159
frame187.jpg,83,638,698,76,85
frame187.jpg,51,649,696,244,94
frame187.jpg,95,934,368,261,561
frame188.jpg,42,84,537,89,202
frame188.jpg,100,116,529,248,367
frame188.jpg,98,320,539,107,276
frame188.jpg,96,421,633,84,161
frame188.jpg,85,633,698,81,90
frame188.jpg,45,718,716,85,77
frame188.jpg,92,866,329,383,618
frame188.jpg,34,1034,660,36,64
frame189.jpg,40,84,537,89,202
frame189.jpg,100,116,529,249,366
frame189.jpg,98,320,539,107,276
frame189.jpg,96,421,633,84,161
frame189.jpg,85,633,698,81,90
frame189.jpg,45,718,716,85,77
frame189.jpg,91,866,329,383,618
frame189.jpg,34,1034,660,36,64
frame190.jpg,67,57,545,91,192
frame190.jpg,99,85,531,245,365
frame190.jpg,98,290,539,121,285
frame190.jpg,98,407,641,84,152
frame190.jpg,50,619,700,67,86
frame190.jpg,33,643,709,249,92
frame190.jpg,100,848,401,441,333
frame191.jpg,72,46,548,93,198
frame191.jpg,100,78,530,244,368
frame191.jpg,96,281,555,112,263
frame191.jpg,94,401,644,90,150
frame191.jpg,53,609,706,82,91
frame191.jpg,85,645,706,224,97
frame191.jpg,96,853,414,464,249
frame191.jpg,79,1024,669,59,61
frame191.jpg,41,1055,664,53,69
frame192.jpg,87,32,540,103,206
frame192.jpg,100,61,534,261,357
frame192.jpg,96,272,554,112,262
frame192.jpg,98,387,640,89,165
frame192.jpg,54,601,704,88,94
frame192.jpg,66,644,703,222,102
frame192.jpg,98,811,421,507,190
frame192.jpg,71,1019,666,67,63
frame192.jpg,31,1051,661,56,75
frame193.jpg,80,25,532,110,212
frame193.jpg,100,42,517,276,361
frame193.jpg,99,259,548,122,265
frame193.jpg,99,377,632,93,167
frame193.jpg,65,593,699,84,89
frame193.jpg,59,596,703,237,102
frame193.jpg,100,780,416,559,197
frame193.jpg,77,1016,665,64,63
frame194.jpg,85,19,536,87,205
frame194.jpg,100,41,524,273,377
frame194.jpg,99,255,547,119,269
frame194.jpg,98,368,632,98,169
frame194.jpg,68,584,706,70,94
frame194.jpg,81,670,724,165,80
frame194.jpg,100,797,389,548,195
frame194.jpg,48,1008,668,40,61
frame194.jpg,74,1018,669,59,63
frame194.jpg,31,1057,660,48,79
frame195.jpg,94,14,544,82,191
frame195.jpg,100,46,529,268,370
frame195.jpg,99,250,549,112,271
frame195.jpg,99,362,640,96,164
frame195.jpg,84,579,706,73,96
frame195.jpg,58,599,717,237,88
frame195.jpg,100,818,356,548,225
frame195.jpg,44,996,671,58,62
frame195.jpg,64,1021,669,62,65
frame196.jpg,91,10,549,78,190
frame196.jpg,100,39,521,268,393
frame196.jpg,98,243,540,117,286
frame196.jpg,99,349,645,95,162
frame196.jpg,85,566,710,86,96
frame196.jpg,72,592,719,238,90
frame196.jpg,100,840,352,524,250
frame196.jpg,72,993,672,65,62
frame196.jpg,53,1017,665,64,71
frame197.jpg,77,4,544,66,193
frame197.jpg,100,37,522,259,393
frame197.jpg,99,220,546,118,286
frame197.jpg,99,340,646,93,156
frame197.jpg,71,566,711,74,95
frame197.jpg,49,590,721,239,89
frame197.jpg,100,898,389,490,271
frame197.jpg,85,990,670,59,64
frame197.jpg,36,1019,663,61,75
frame198.jpg,99,26,531,276,377
frame198.jpg,90,209,548,125,276
frame198.jpg,99,330,643,91,158
frame198.jpg,75,547,709,66,93
frame198.jpg,40,573,713,66,91
frame198.jpg,52,597,723,230,85
frame198.jpg,100,905,390,460,280
frame198.jpg,31,946,705,44,28
frame198.jpg,88,989,672,59,60
frame198.jpg,40,1017,666,56,70
frame199.jpg,99,26,531,276,377
frame199.jpg,90,209,548,125,276
frame199.jpg,99,330,643,91,158
frame199.jpg,75,547,709,66,93
frame199.jpg,40,573,713,66,91
frame199.jpg,51,597,723,229,85
frame199.jpg,100,905,390,460,280
frame199.jpg,31,946,705,44,28
frame199.jpg,88,989,672,59,60
frame199.jpg,40,1017,666,56,70
frame200.jpg,100,4,532,256,385
frame200.jpg,92,179,621,120,203
frame200.jpg,99,297,649,104,159
frame200.jpg,49,533,708,64,100
frame200.jpg,35,616,732,140,87
frame200.jpg,32,923,711,46,25
frame200.jpg,27,960,673,60,62
frame200.jpg,100,968,384,338,297
frame200.jpg,73,980,677,68,63
frame201.jpg,100,3,533,257,381
frame201.jpg,90,169,535,127,297
frame201.jpg,99,289,641,107,167
frame201.jpg,44,509,716,269,99
frame201.jpg,31,512,707,64,97
frame201.jpg,28,920,708,48,26
frame201.jpg,53,959,672,60,62
frame201.jpg,26,976,679,68,59
frame201.jpg,94,1014,431,255,259
frame202.jpg,100,7,525,229,391
frame202.jpg,94,149,558,122,266
frame202.jpg,99,273,637,110,166
frame202.jpg,64,511,694,60,93
frame202.jpg,41,956,672,65,60
frame203.jpg,100,7,520,217,406
frame203.jpg,95,143,542,122,291
frame203.jpg,98,262,642,106,160
frame203.jpg,48,497,701,80,106
frame203.jpg,66,511,712,259,101
frame203.jpg,73,951,672,68,63
frame203.jpg,96,1027,499,202,278
frame204.jpg,99,5,537,213,387
frame204.jpg,96,128,542,128,296
frame204.jpg,98,249,645,110,159
frame204.jpg,36,493,704,77,105
frame204.jpg,69,501,716,262,103
frame204.jpg,33,942,678,66,61
frame204.jpg,94,965,520,244,254
frame205.jpg,99,5,537,213,386
frame205.jpg,96,128,542,128,297
frame205.jpg,98,249,645,110,159
frame205.jpg,35,493,704,77,105
frame205.jpg,69,501,716,262,103
frame205.jpg,32,942,678,66,61
frame205.jpg,94,965,519,243,254
frame206.jpg,91,102,626,128,204
frame206.jpg,99,226,654,111,153
frame206.jpg,66,469,710,63,97
frame206.jpg,52,513,733,253,90
frame206.jpg,38,545,740,71,84
frame206.jpg,68,941,677,70,63
frame206.jpg,96,1004,574,235,332
